(kicad_sch (version 20230121) (generator eeschema)

  (uuid 12643a92-991a-4335-aa18-743a3eda9124)

  (paper "A4")

  (title_block
    (title "Picobus Deployer Board")
    (date "2024-01-11")
    (rev "2.0")
    (company "Libre Space Foundation")
  )

  (lib_symbols
    (symbol "Connector:Screw_Terminal_01x01" (pin_names (offset 1.016) hide) (in_bom yes) (on_board yes)
      (property "Reference" "J" (at 0 2.54 0)
        (effects (font (size 1.27 1.27)))
      )
      (property "Value" "Screw_Terminal_01x01" (at 0 -2.54 0)
        (effects (font (size 1.27 1.27)))
      )
      (property "Footprint" "" (at 0 0 0)
        (effects (font (size 1.27 1.27)) hide)
      )
      (property "Datasheet" "~" (at 0 0 0)
        (effects (font (size 1.27 1.27)) hide)
      )
      (property "ki_keywords" "screw terminal" (at 0 0 0)
        (effects (font (size 1.27 1.27)) hide)
      )
      (property "ki_description" "Generic screw terminal, single row, 01x01, script generated (kicad-library-utils/schlib/autogen/connector/)" (at 0 0 0)
        (effects (font (size 1.27 1.27)) hide)
      )
      (property "ki_fp_filters" "TerminalBlock*:*" (at 0 0 0)
        (effects (font (size 1.27 1.27)) hide)
      )
      (symbol "Screw_Terminal_01x01_1_1"
        (rectangle (start -1.27 1.27) (end 1.27 -1.27)
          (stroke (width 0.254) (type default))
          (fill (type background))
        )
        (polyline
          (pts
            (xy -0.5334 0.3302)
            (xy 0.3302 -0.508)
          )
          (stroke (width 0.1524) (type default))
          (fill (type none))
        )
        (polyline
          (pts
            (xy -0.3556 0.508)
            (xy 0.508 -0.3302)
          )
          (stroke (width 0.1524) (type default))
          (fill (type none))
        )
        (circle (center 0 0) (radius 0.635)
          (stroke (width 0.1524) (type default))
          (fill (type none))
        )
        (pin passive line (at -5.08 0 0) (length 3.81)
          (name "Pin_1" (effects (font (size 1.27 1.27))))
          (number "1" (effects (font (size 1.27 1.27))))
        )
      )
    )
    (symbol "Device:C" (pin_numbers hide) (pin_names (offset 0.254)) (in_bom yes) (on_board yes)
      (property "Reference" "C" (at 0.635 2.54 0)
        (effects (font (size 1.27 1.27)) (justify left))
      )
      (property "Value" "C" (at 0.635 -2.54 0)
        (effects (font (size 1.27 1.27)) (justify left))
      )
      (property "Footprint" "" (at 0.9652 -3.81 0)
        (effects (font (size 1.27 1.27)) hide)
      )
      (property "Datasheet" "~" (at 0 0 0)
        (effects (font (size 1.27 1.27)) hide)
      )
      (property "ki_keywords" "cap capacitor" (at 0 0 0)
        (effects (font (size 1.27 1.27)) hide)
      )
      (property "ki_description" "Unpolarized capacitor" (at 0 0 0)
        (effects (font (size 1.27 1.27)) hide)
      )
      (property "ki_fp_filters" "C_*" (at 0 0 0)
        (effects (font (size 1.27 1.27)) hide)
      )
      (symbol "C_0_1"
        (polyline
          (pts
            (xy -2.032 -0.762)
            (xy 2.032 -0.762)
          )
          (stroke (width 0.508) (type default))
          (fill (type none))
        )
        (polyline
          (pts
            (xy -2.032 0.762)
            (xy 2.032 0.762)
          )
          (stroke (width 0.508) (type default))
          (fill (type none))
        )
      )
      (symbol "C_1_1"
        (pin passive line (at 0 3.81 270) (length 2.794)
          (name "~" (effects (font (size 1.27 1.27))))
          (number "1" (effects (font (size 1.27 1.27))))
        )
        (pin passive line (at 0 -3.81 90) (length 2.794)
          (name "~" (effects (font (size 1.27 1.27))))
          (number "2" (effects (font (size 1.27 1.27))))
        )
      )
    )
    (symbol "Device:L" (pin_numbers hide) (pin_names (offset 1.016) hide) (in_bom yes) (on_board yes)
      (property "Reference" "L" (at -1.27 0 90)
        (effects (font (size 1.27 1.27)))
      )
      (property "Value" "L" (at 1.905 0 90)
        (effects (font (size 1.27 1.27)))
      )
      (property "Footprint" "" (at 0 0 0)
        (effects (font (size 1.27 1.27)) hide)
      )
      (property "Datasheet" "~" (at 0 0 0)
        (effects (font (size 1.27 1.27)) hide)
      )
      (property "ki_keywords" "inductor choke coil reactor magnetic" (at 0 0 0)
        (effects (font (size 1.27 1.27)) hide)
      )
      (property "ki_description" "Inductor" (at 0 0 0)
        (effects (font (size 1.27 1.27)) hide)
      )
      (property "ki_fp_filters" "Choke_* *Coil* Inductor_* L_*" (at 0 0 0)
        (effects (font (size 1.27 1.27)) hide)
      )
      (symbol "L_0_1"
        (arc (start 0 -2.54) (mid 0.6323 -1.905) (end 0 -1.27)
          (stroke (width 0) (type default))
          (fill (type none))
        )
        (arc (start 0 -1.27) (mid 0.6323 -0.635) (end 0 0)
          (stroke (width 0) (type default))
          (fill (type none))
        )
        (arc (start 0 0) (mid 0.6323 0.635) (end 0 1.27)
          (stroke (width 0) (type default))
          (fill (type none))
        )
        (arc (start 0 1.27) (mid 0.6323 1.905) (end 0 2.54)
          (stroke (width 0) (type default))
          (fill (type none))
        )
      )
      (symbol "L_1_1"
        (pin passive line (at 0 3.81 270) (length 1.27)
          (name "1" (effects (font (size 1.27 1.27))))
          (number "1" (effects (font (size 1.27 1.27))))
        )
        (pin passive line (at 0 -3.81 90) (length 1.27)
          (name "2" (effects (font (size 1.27 1.27))))
          (number "2" (effects (font (size 1.27 1.27))))
        )
      )
    )
    (symbol "Device:R" (pin_numbers hide) (pin_names (offset 0)) (in_bom yes) (on_board yes)
      (property "Reference" "R" (at 2.032 0 90)
        (effects (font (size 1.27 1.27)))
      )
      (property "Value" "R" (at 0 0 90)
        (effects (font (size 1.27 1.27)))
      )
      (property "Footprint" "" (at -1.778 0 90)
        (effects (font (size 1.27 1.27)) hide)
      )
      (property "Datasheet" "~" (at 0 0 0)
        (effects (font (size 1.27 1.27)) hide)
      )
      (property "ki_keywords" "R res resistor" (at 0 0 0)
        (effects (font (size 1.27 1.27)) hide)
      )
      (property "ki_description" "Resistor" (at 0 0 0)
        (effects (font (size 1.27 1.27)) hide)
      )
      (property "ki_fp_filters" "R_*" (at 0 0 0)
        (effects (font (size 1.27 1.27)) hide)
      )
      (symbol "R_0_1"
        (rectangle (start -1.016 -2.54) (end 1.016 2.54)
          (stroke (width 0.254) (type default))
          (fill (type none))
        )
      )
      (symbol "R_1_1"
        (pin passive line (at 0 3.81 270) (length 1.27)
          (name "~" (effects (font (size 1.27 1.27))))
          (number "1" (effects (font (size 1.27 1.27))))
        )
        (pin passive line (at 0 -3.81 90) (length 1.27)
          (name "~" (effects (font (size 1.27 1.27))))
          (number "2" (effects (font (size 1.27 1.27))))
        )
      )
    )
    (symbol "Diode:PMEG6010CEH" (pin_numbers hide) (pin_names hide) (in_bom yes) (on_board yes)
      (property "Reference" "D" (at 0 2.54 0)
        (effects (font (size 1.27 1.27)))
      )
      (property "Value" "PMEG6010CEH" (at 0 -2.54 0)
        (effects (font (size 1.27 1.27)))
      )
      (property "Footprint" "Diode_SMD:D_SOD-123F" (at 0 -4.445 0)
        (effects (font (size 1.27 1.27)) hide)
      )
      (property "Datasheet" "https://assets.nexperia.com/documents/data-sheet/PMEG6010CEH_PMEG6010CEJ.pdf" (at 0 0 0)
        (effects (font (size 1.27 1.27)) hide)
      )
      (property "ki_keywords" "forward voltage diode" (at 0 0 0)
        (effects (font (size 1.27 1.27)) hide)
      )
      (property "ki_description" "60V, 1A very low Vf MEGA Schottky barrier rectifier, SOD-123F" (at 0 0 0)
        (effects (font (size 1.27 1.27)) hide)
      )
      (property "ki_fp_filters" "D*SOD?123F*" (at 0 0 0)
        (effects (font (size 1.27 1.27)) hide)
      )
      (symbol "PMEG6010CEH_0_1"
        (polyline
          (pts
            (xy 1.27 0)
            (xy -1.27 0)
          )
          (stroke (width 0) (type default))
          (fill (type none))
        )
        (polyline
          (pts
            (xy 1.27 1.27)
            (xy 1.27 -1.27)
            (xy -1.27 0)
            (xy 1.27 1.27)
          )
          (stroke (width 0.2032) (type default))
          (fill (type none))
        )
        (polyline
          (pts
            (xy -1.905 0.635)
            (xy -1.905 1.27)
            (xy -1.27 1.27)
            (xy -1.27 -1.27)
            (xy -0.635 -1.27)
            (xy -0.635 -0.635)
          )
          (stroke (width 0.2032) (type default))
          (fill (type none))
        )
      )
      (symbol "PMEG6010CEH_1_1"
        (pin passive line (at -3.81 0 0) (length 2.54)
          (name "K" (effects (font (size 1.27 1.27))))
          (number "1" (effects (font (size 1.27 1.27))))
        )
        (pin passive line (at 3.81 0 180) (length 2.54)
          (name "A" (effects (font (size 1.27 1.27))))
          (number "2" (effects (font (size 1.27 1.27))))
        )
      )
    )
    (symbol "Mechanical:MountingHole" (pin_names (offset 1.016)) (in_bom yes) (on_board yes)
      (property "Reference" "H" (at 0 5.08 0)
        (effects (font (size 1.27 1.27)))
      )
      (property "Value" "MountingHole" (at 0 3.175 0)
        (effects (font (size 1.27 1.27)))
      )
      (property "Footprint" "" (at 0 0 0)
        (effects (font (size 1.27 1.27)) hide)
      )
      (property "Datasheet" "~" (at 0 0 0)
        (effects (font (size 1.27 1.27)) hide)
      )
      (property "ki_keywords" "mounting hole" (at 0 0 0)
        (effects (font (size 1.27 1.27)) hide)
      )
      (property "ki_description" "Mounting Hole without connection" (at 0 0 0)
        (effects (font (size 1.27 1.27)) hide)
      )
      (property "ki_fp_filters" "MountingHole*" (at 0 0 0)
        (effects (font (size 1.27 1.27)) hide)
      )
      (symbol "MountingHole_0_1"
        (circle (center 0 0) (radius 1.27)
          (stroke (width 1.27) (type default))
          (fill (type none))
        )
      )
    )
    (symbol "Switch:SW_SPDT" (pin_names (offset 0) hide) (in_bom yes) (on_board yes)
      (property "Reference" "SW" (at 0 4.318 0)
        (effects (font (size 1.27 1.27)))
      )
      (property "Value" "SW_SPDT" (at 0 -5.08 0)
        (effects (font (size 1.27 1.27)))
      )
      (property "Footprint" "" (at 0 0 0)
        (effects (font (size 1.27 1.27)) hide)
      )
      (property "Datasheet" "~" (at 0 0 0)
        (effects (font (size 1.27 1.27)) hide)
      )
      (property "ki_keywords" "switch single-pole double-throw spdt ON-ON" (at 0 0 0)
        (effects (font (size 1.27 1.27)) hide)
      )
      (property "ki_description" "Switch, single pole double throw" (at 0 0 0)
        (effects (font (size 1.27 1.27)) hide)
      )
      (symbol "SW_SPDT_0_0"
        (circle (center -2.032 0) (radius 0.508)
          (stroke (width 0) (type default))
          (fill (type none))
        )
        (circle (center 2.032 -2.54) (radius 0.508)
          (stroke (width 0) (type default))
          (fill (type none))
        )
      )
      (symbol "SW_SPDT_0_1"
        (polyline
          (pts
            (xy -1.524 0.254)
            (xy 1.651 2.286)
          )
          (stroke (width 0) (type default))
          (fill (type none))
        )
        (circle (center 2.032 2.54) (radius 0.508)
          (stroke (width 0) (type default))
          (fill (type none))
        )
      )
      (symbol "SW_SPDT_1_1"
        (pin passive line (at 5.08 2.54 180) (length 2.54)
          (name "A" (effects (font (size 1.27 1.27))))
          (number "1" (effects (font (size 1.27 1.27))))
        )
        (pin passive line (at -5.08 0 0) (length 2.54)
          (name "B" (effects (font (size 1.27 1.27))))
          (number "2" (effects (font (size 1.27 1.27))))
        )
        (pin passive line (at 5.08 -2.54 180) (length 2.54)
          (name "C" (effects (font (size 1.27 1.27))))
          (number "3" (effects (font (size 1.27 1.27))))
        )
      )
    )
    (symbol "library:LM22673QMRE-5.0_NOPB" (in_bom yes) (on_board yes)
      (property "Reference" "IC" (at 26.67 7.62 0)
        (effects (font (size 1.27 1.27)) (justify left top))
      )
      (property "Value" "LM22673QMRE-5.0_NOPB" (at 26.67 5.08 0)
        (effects (font (size 1.27 1.27)) (justify left top))
      )
      (property "Footprint" "Package_SO:TI_SO-PowerPAD-8_ThermalVias" (at 26.67 -94.92 0)
        (effects (font (size 1.27 1.27)) (justify left top) hide)
      )
      (property "Datasheet" "http://www.ti.com/lit/gpn/lm22673-q1" (at 26.67 -194.92 0)
        (effects (font (size 1.27 1.27)) (justify left top) hide)
      )
      (property "Height" "1.7" (at 26.67 -394.92 0)
        (effects (font (size 1.27 1.27)) (justify left top) hide)
      )
      (property "Mouser Part Number" "" (at 26.67 -494.92 0)
        (effects (font (size 1.27 1.27)) (justify left top) hide)
      )
      (property "Mouser Price/Stock" "" (at 26.67 -594.92 0)
        (effects (font (size 1.27 1.27)) (justify left top) hide)
      )
      (property "Manufacturer_Name" "Texas Instruments" (at 26.67 -694.92 0)
        (effects (font (size 1.27 1.27)) (justify left top) hide)
      )
      (property "Manufacturer_Part_Number" "LM22673QMRE-5.0/NOPB" (at 26.67 -794.92 0)
        (effects (font (size 1.27 1.27)) (justify left top) hide)
      )
      (property "ki_description" "3A SIMPLE SWITCHER&#174;, Step-Down Voltage Reg. with Adjustable Soft-Start and Current Limit" (at 0 0 0)
        (effects (font (size 1.27 1.27)) hide)
      )
      (symbol "LM22673QMRE-5.0_NOPB_1_1"
        (rectangle (start 5.08 2.54) (end 25.4 -20.32)
          (stroke (width 0.254) (type default))
          (fill (type background))
        )
        (pin passive line (at 0 0 0) (length 5.08)
          (name "BOOT" (effects (font (size 1.27 1.27))))
          (number "1" (effects (font (size 1.27 1.27))))
        )
        (pin no_connect line (at 0 -2.54 0) (length 5.08)
          (name "NC" (effects (font (size 1.27 1.27))))
          (number "2" (effects (font (size 1.27 1.27))))
        )
        (pin passive line (at 0 -5.08 0) (length 5.08)
          (name "IADJ" (effects (font (size 1.27 1.27))))
          (number "3" (effects (font (size 1.27 1.27))))
        )
        (pin passive line (at 0 -7.62 0) (length 5.08)
          (name "FB" (effects (font (size 1.27 1.27))))
          (number "4" (effects (font (size 1.27 1.27))))
        )
        (pin passive line (at 30.48 -7.62 180) (length 5.08)
          (name "SS" (effects (font (size 1.27 1.27))))
          (number "5" (effects (font (size 1.27 1.27))))
        )
        (pin passive line (at 30.48 -5.08 180) (length 5.08)
          (name "GND_1" (effects (font (size 1.27 1.27))))
          (number "6" (effects (font (size 1.27 1.27))))
        )
        (pin passive line (at 30.48 -2.54 180) (length 5.08)
          (name "VIN" (effects (font (size 1.27 1.27))))
          (number "7" (effects (font (size 1.27 1.27))))
        )
        (pin passive line (at 30.48 0 180) (length 5.08)
          (name "SW" (effects (font (size 1.27 1.27))))
          (number "8" (effects (font (size 1.27 1.27))))
        )
        (pin passive line (at 15.24 -25.4 90) (length 5.08)
          (name "GND_2" (effects (font (size 1.27 1.27))))
          (number "9" (effects (font (size 1.27 1.27))))
        )
      )
    )
    (symbol "power:PWR_FLAG" (power) (pin_numbers hide) (pin_names (offset 0) hide) (in_bom yes) (on_board yes)
      (property "Reference" "#FLG" (at 0 1.905 0)
        (effects (font (size 1.27 1.27)) hide)
      )
      (property "Value" "PWR_FLAG" (at 0 3.81 0)
        (effects (font (size 1.27 1.27)))
      )
      (property "Footprint" "" (at 0 0 0)
        (effects (font (size 1.27 1.27)) hide)
      )
      (property "Datasheet" "~" (at 0 0 0)
        (effects (font (size 1.27 1.27)) hide)
      )
      (property "ki_keywords" "flag power" (at 0 0 0)
        (effects (font (size 1.27 1.27)) hide)
      )
      (property "ki_description" "Special symbol for telling ERC where power comes from" (at 0 0 0)
        (effects (font (size 1.27 1.27)) hide)
      )
      (symbol "PWR_FLAG_0_0"
        (pin power_out line (at 0 0 90) (length 0)
          (name "pwr" (effects (font (size 1.27 1.27))))
          (number "1" (effects (font (size 1.27 1.27))))
        )
      )
      (symbol "PWR_FLAG_0_1"
        (polyline
          (pts
            (xy 0 0)
            (xy 0 1.27)
            (xy -1.016 1.905)
            (xy 0 2.54)
            (xy 1.016 1.905)
            (xy 0 1.27)
          )
          (stroke (width 0) (type default))
          (fill (type none))
        )
      )
    )
  )

  (junction (at 146.05 81.28) (diameter 0) (color 0 0 0 0)
    (uuid 004e3e7a-8602-4610-90af-aa5556e5ab4c)
  )
  (junction (at 115.57 139.7) (diameter 0) (color 0 0 0 0)
    (uuid 0128ae17-7dc0-4740-a192-33b44cf28d2d)
  )
  (junction (at 52.07 127) (diameter 0) (color 0 0 0 0)
    (uuid 047421b2-a5bb-46d0-b77d-667f207d2e64)
  )
  (junction (at 52.07 99.06) (diameter 0) (color 0 0 0 0)
    (uuid 099b4103-d1a5-4d41-88e2-9abdf74875ea)
  )
  (junction (at 60.96 59.69) (diameter 0) (color 0 0 0 0)
    (uuid 1db5ef9f-af45-4520-9939-902739afb6b2)
  )
  (junction (at 119.38 55.88) (diameter 0) (color 0 0 0 0)
    (uuid 3ce3b9ad-f3be-4be9-9be0-3dd609d6d137)
  )
  (junction (at 62.23 99.06) (diameter 0) (color 0 0 0 0)
    (uuid 3cfdd830-f709-4b88-b64c-566c83107fd9)
  )
  (junction (at 252.73 125.73) (diameter 0) (color 0 0 0 0)
    (uuid 42f6d0d7-d918-4298-8963-e0f4f985d8f2)
  )
  (junction (at 138.43 123.19) (diameter 0) (color 0 0 0 0)
    (uuid 450f92f3-fbc7-44b6-8a8f-e1c601a90d7a)
  )
  (junction (at 50.8 59.69) (diameter 0) (color 0 0 0 0)
    (uuid 45e878b4-c64d-4133-90c8-ca6f983218ae)
  )
  (junction (at 50.8 31.75) (diameter 0) (color 0 0 0 0)
    (uuid 5c5c0f83-61e0-4926-9514-9d7c95e71997)
  )
  (junction (at 93.98 139.7) (diameter 0) (color 0 0 0 0)
    (uuid 7901fd56-669c-4dee-aa12-2c6a6964b494)
  )
  (junction (at 137.16 55.88) (diameter 0) (color 0 0 0 0)
    (uuid 7c7b9699-d66c-443e-93a8-4338b6a47e26)
  )
  (junction (at 252.73 99.06) (diameter 0) (color 0 0 0 0)
    (uuid 83a7b5a3-b483-4d2f-bd00-74c906bd3f3e)
  )
  (junction (at 110.49 45.72) (diameter 0) (color 0 0 0 0)
    (uuid 95d141a1-054e-41bb-ac53-b15c5709043e)
  )
  (junction (at 111.76 113.03) (diameter 0) (color 0 0 0 0)
    (uuid 9968ee90-3ccd-4ac5-8453-e863fc0be435)
  )
  (junction (at 124.46 31.75) (diameter 0) (color 0 0 0 0)
    (uuid a1612acb-1b44-4ff1-9c97-5ac4a38a4418)
  )
  (junction (at 40.64 31.75) (diameter 0) (color 0 0 0 0)
    (uuid a1df5ebc-aef2-45a1-8f0b-48dea8a59986)
  )
  (junction (at 252.73 116.84) (diameter 0) (color 0 0 0 0)
    (uuid a981d6a2-b7ee-4369-958d-6d35fa829f2a)
  )
  (junction (at 137.16 68.58) (diameter 0) (color 0 0 0 0)
    (uuid adbe0070-cf1f-4567-94da-6c186fc34636)
  )
  (junction (at 120.65 123.19) (diameter 0) (color 0 0 0 0)
    (uuid b0ac272f-963f-461f-ad8f-1edf95bdb26b)
  )
  (junction (at 62.23 127) (diameter 0) (color 0 0 0 0)
    (uuid b4a7941e-d623-48b4-82ca-0c6db7d39752)
  )
  (junction (at 138.43 135.89) (diameter 0) (color 0 0 0 0)
    (uuid b94ab055-0128-48bc-8cb6-8936c260f6af)
  )
  (junction (at 146.05 55.88) (diameter 0) (color 0 0 0 0)
    (uuid bf66c5ba-e46c-442b-bcfd-723a3343a946)
  )
  (junction (at 252.73 90.17) (diameter 0) (color 0 0 0 0)
    (uuid c53992fe-f28b-406d-b7c3-6ed0b7023338)
  )
  (junction (at 147.32 148.59) (diameter 0) (color 0 0 0 0)
    (uuid d3382ec8-53b4-428c-9240-e8e3491f8fe7)
  )
  (junction (at 147.32 123.19) (diameter 0) (color 0 0 0 0)
    (uuid e1aef410-c54a-4c4f-b475-c30fad78f09d)
  )
  (junction (at 109.22 139.7) (diameter 0) (color 0 0 0 0)
    (uuid eb1453ac-1289-46a6-be17-6d045711f32e)
  )
  (junction (at 92.71 72.39) (diameter 0) (color 0 0 0 0)
    (uuid ec4ed40c-3518-4bbd-9896-0ea42d2ce635)
  )
  (junction (at 107.95 72.39) (diameter 0) (color 0 0 0 0)
    (uuid efbed348-29dd-402e-b4c7-0de4d1001fd4)
  )
  (junction (at 114.3 72.39) (diameter 0) (color 0 0 0 0)
    (uuid efcf923c-8780-40f1-802e-6838ab99e27d)
  )
  (junction (at 60.96 31.75) (diameter 0) (color 0 0 0 0)
    (uuid f9f78187-25f9-48c7-b9d9-a38bdba6a203)
  )
  (junction (at 41.91 99.06) (diameter 0) (color 0 0 0 0)
    (uuid fa65474e-163f-4096-8178-92fb72bdd46e)
  )

  (wire (pts (xy 146.05 72.39) (xy 146.05 81.28))
    (stroke (width 0) (type default))
    (uuid 00064ede-a787-49a3-a69a-2b818098eea2)
  )
  (wire (pts (xy 107.95 72.39) (xy 92.71 72.39))
    (stroke (width 0) (type default))
    (uuid 014b841b-8dde-41b0-bd8e-56226812c9b6)
  )
  (wire (pts (xy 138.43 123.19) (xy 147.32 123.19))
    (stroke (width 0) (type default))
    (uuid 0167b5f2-7ac7-48ed-a5fe-06b5783a3b84)
  )
  (wire (pts (xy 76.2 118.11) (xy 78.74 118.11))
    (stroke (width 0) (type default))
    (uuid 028207ee-c9bc-4348-ab16-39149300dbc2)
  )
  (wire (pts (xy 114.3 72.39) (xy 107.95 72.39))
    (stroke (width 0) (type default))
    (uuid 07521893-55d9-4e12-b26e-2b4b70c1f185)
  )
  (wire (pts (xy 62.23 118.11) (xy 62.23 127))
    (stroke (width 0) (type default))
    (uuid 0a6dae7b-2eb8-47ff-a2df-3ac9cefec86d)
  )
  (wire (pts (xy 52.07 99.06) (xy 62.23 99.06))
    (stroke (width 0) (type default))
    (uuid 0ad20a20-6324-4ab4-a566-73c917a0b4ab)
  )
  (wire (pts (xy 41.91 127) (xy 52.07 127))
    (stroke (width 0) (type default))
    (uuid 0b1cc7a0-9845-480b-bba6-1413af833721)
  )
  (wire (pts (xy 40.64 50.8) (xy 40.64 59.69))
    (stroke (width 0) (type default))
    (uuid 0b9a7363-14e3-428f-a3ca-b3f59e6e6ef9)
  )
  (wire (pts (xy 60.96 50.8) (xy 60.96 59.69))
    (stroke (width 0) (type default))
    (uuid 0c2da358-30ac-47a3-a820-4519d9b9daa3)
  )
  (wire (pts (xy 252.73 90.17) (xy 252.73 99.06))
    (stroke (width 0) (type default))
    (uuid 0cfd218e-8117-44d3-8ab2-5a43382b54ac)
  )
  (wire (pts (xy 115.57 118.11) (xy 115.57 139.7))
    (stroke (width 0) (type default))
    (uuid 115802db-1b5f-4243-9389-3aa75b982cf5)
  )
  (wire (pts (xy 40.64 43.18) (xy 40.64 31.75))
    (stroke (width 0) (type default))
    (uuid 11ed61f1-c8bf-432a-b75b-adb6004fdeb9)
  )
  (wire (pts (xy 133.35 123.19) (xy 138.43 123.19))
    (stroke (width 0) (type default))
    (uuid 13031806-dcff-4702-962d-36a4279c725a)
  )
  (wire (pts (xy 137.16 81.28) (xy 146.05 81.28))
    (stroke (width 0) (type default))
    (uuid 1aaa6d6d-6c67-45df-852e-da5eb176c6d3)
  )
  (wire (pts (xy 124.46 135.89) (xy 138.43 135.89))
    (stroke (width 0) (type default))
    (uuid 1c10d770-63aa-4e9e-9b01-171751a5f9ee)
  )
  (wire (pts (xy 231.14 48.26) (xy 242.57 48.26))
    (stroke (width 0) (type default))
    (uuid 1c37ffcf-0993-4175-8fba-a640c56aa7b3)
  )
  (wire (pts (xy 231.14 59.69) (xy 242.57 59.69))
    (stroke (width 0) (type default))
    (uuid 1ea58d0d-b466-463a-a9f2-bcdf6e9e388f)
  )
  (wire (pts (xy 260.35 99.06) (xy 252.73 99.06))
    (stroke (width 0) (type default))
    (uuid 1ef9e927-f389-46aa-9281-6b8f61813ca4)
  )
  (wire (pts (xy 60.96 31.75) (xy 124.46 31.75))
    (stroke (width 0) (type default))
    (uuid 1f5c11a0-bc86-4184-a6ee-177e72cad4a5)
  )
  (wire (pts (xy 41.91 99.06) (xy 22.86 99.06))
    (stroke (width 0) (type default))
    (uuid 21a31f79-8747-490a-8b48-ef1a69fad8f4)
  )
  (wire (pts (xy 109.22 132.08) (xy 109.22 139.7))
    (stroke (width 0) (type default))
    (uuid 26f5c8cb-538a-4418-b2d4-fb96948b7388)
  )
  (wire (pts (xy 111.76 102.87) (xy 111.76 113.03))
    (stroke (width 0) (type default))
    (uuid 29f4cf45-5c00-43a9-a3ff-a46df3b473f1)
  )
  (wire (pts (xy 262.89 148.59) (xy 269.24 148.59))
    (stroke (width 0) (type default))
    (uuid 2c10188d-f834-4b31-a43a-707cbd1af0f3)
  )
  (wire (pts (xy 147.32 123.19) (xy 170.18 123.19))
    (stroke (width 0) (type default))
    (uuid 2e9f8737-e9ed-40b6-a62b-1ec905301eec)
  )
  (wire (pts (xy 52.07 110.49) (xy 52.07 99.06))
    (stroke (width 0) (type default))
    (uuid 2ffa9541-56bd-4ec1-9767-4a6c9d397eb4)
  )
  (wire (pts (xy 93.98 138.43) (xy 93.98 139.7))
    (stroke (width 0) (type default))
    (uuid 303fac06-f274-4319-80a6-e8f0f8e55630)
  )
  (wire (pts (xy 110.49 45.72) (xy 119.38 45.72))
    (stroke (width 0) (type default))
    (uuid 312cdd5f-5673-4a7a-98d0-f01d18316767)
  )
  (wire (pts (xy 120.65 113.03) (xy 120.65 123.19))
    (stroke (width 0) (type default))
    (uuid 34c02c64-8bf9-4610-ac1a-567055d7111d)
  )
  (wire (pts (xy 252.73 107.95) (xy 252.73 116.84))
    (stroke (width 0) (type default))
    (uuid 35330b76-730a-4d52-b350-e55b0f61e17c)
  )
  (wire (pts (xy 60.96 59.69) (xy 60.96 74.93))
    (stroke (width 0) (type default))
    (uuid 366908ed-c4c9-4c21-ae31-69915290c02b)
  )
  (wire (pts (xy 146.05 55.88) (xy 168.91 55.88))
    (stroke (width 0) (type default))
    (uuid 36dc9dce-6ace-4239-a045-254a8ea19518)
  )
  (wire (pts (xy 107.95 45.72) (xy 110.49 45.72))
    (stroke (width 0) (type default))
    (uuid 3a3d74cf-9511-4ab9-8448-9395dd1275a4)
  )
  (wire (pts (xy 260.35 90.17) (xy 252.73 90.17))
    (stroke (width 0) (type default))
    (uuid 3ca2427a-86b4-45aa-b031-fa99712e59b7)
  )
  (wire (pts (xy 147.32 139.7) (xy 147.32 148.59))
    (stroke (width 0) (type default))
    (uuid 3d670147-0f49-4354-8ab6-02049f8a478b)
  )
  (wire (pts (xy 138.43 148.59) (xy 147.32 148.59))
    (stroke (width 0) (type default))
    (uuid 41d35da1-764b-46ab-9e22-704d0e8b9fb5)
  )
  (wire (pts (xy 138.43 135.89) (xy 138.43 130.81))
    (stroke (width 0) (type default))
    (uuid 42b0c12d-9845-4d23-8f32-3da45114c216)
  )
  (wire (pts (xy 78.74 102.87) (xy 111.76 102.87))
    (stroke (width 0) (type default))
    (uuid 45e41ce8-0fbf-4571-b585-29833259e909)
  )
  (wire (pts (xy 146.05 81.28) (xy 168.91 81.28))
    (stroke (width 0) (type default))
    (uuid 462e13b5-da52-4fef-9e4e-e59ea4f179a3)
  )
  (wire (pts (xy 252.73 125.73) (xy 240.03 125.73))
    (stroke (width 0) (type default))
    (uuid 4670c0a0-e95d-4fc4-9c09-fdd697e7b3e4)
  )
  (wire (pts (xy 107.95 64.77) (xy 107.95 72.39))
    (stroke (width 0) (type default))
    (uuid 46e66695-38a4-4240-91c2-6a881b3fb587)
  )
  (wire (pts (xy 123.19 68.58) (xy 123.19 81.28))
    (stroke (width 0) (type default))
    (uuid 4ccedb25-a5b8-4b53-9498-c6bb68c76462)
  )
  (wire (pts (xy 74.93 62.23) (xy 74.93 72.39))
    (stroke (width 0) (type default))
    (uuid 4ef5d30c-8f39-40b0-9b3f-6e01c3382360)
  )
  (wire (pts (xy 110.49 35.56) (xy 110.49 45.72))
    (stroke (width 0) (type default))
    (uuid 53587d89-ba05-4aeb-8af8-1e490c918346)
  )
  (wire (pts (xy 40.64 31.75) (xy 21.59 31.75))
    (stroke (width 0) (type default))
    (uuid 5638c473-0c95-4fc7-a7a3-53c585f1aa61)
  )
  (wire (pts (xy 260.35 125.73) (xy 252.73 125.73))
    (stroke (width 0) (type default))
    (uuid 585edc27-b1ab-4616-84f2-43b1c8fa9fe7)
  )
  (wire (pts (xy 41.91 110.49) (xy 41.91 99.06))
    (stroke (width 0) (type default))
    (uuid 5937ab51-72d7-47fc-b6cb-0adf21723967)
  )
  (wire (pts (xy 120.65 123.19) (xy 125.73 123.19))
    (stroke (width 0) (type default))
    (uuid 5a72ca75-fbba-41e0-b778-b66da4bdaafa)
  )
  (wire (pts (xy 137.16 78.74) (xy 137.16 81.28))
    (stroke (width 0) (type default))
    (uuid 5b01df57-ddb6-4141-ae24-b3f68230197e)
  )
  (wire (pts (xy 125.73 99.06) (xy 125.73 115.57))
    (stroke (width 0) (type default))
    (uuid 5b3ebda8-6946-4f18-a6a2-0ade44cec67f)
  )
  (wire (pts (xy 74.93 72.39) (xy 92.71 72.39))
    (stroke (width 0) (type default))
    (uuid 5d15455f-3df7-4a57-9c6f-b50f0a15dda3)
  )
  (wire (pts (xy 78.74 148.59) (xy 124.46 148.59))
    (stroke (width 0) (type default))
    (uuid 5d509233-d8b2-4521-8276-a213860ff3ff)
  )
  (wire (pts (xy 50.8 31.75) (xy 60.96 31.75))
    (stroke (width 0) (type default))
    (uuid 5fad6a6a-325a-4338-b77b-f60f3bceb1aa)
  )
  (wire (pts (xy 92.71 72.39) (xy 92.71 76.2))
    (stroke (width 0) (type default))
    (uuid 62a8832e-f426-43dc-b3d6-b3e2c7089ca7)
  )
  (wire (pts (xy 115.57 139.7) (xy 109.22 139.7))
    (stroke (width 0) (type default))
    (uuid 658564c6-9ac3-477d-b479-ded8380c75d4)
  )
  (wire (pts (xy 62.23 127) (xy 62.23 142.24))
    (stroke (width 0) (type default))
    (uuid 6588b8aa-8d34-4efc-8949-13d325c854fe)
  )
  (wire (pts (xy 119.38 72.39) (xy 114.3 72.39))
    (stroke (width 0) (type default))
    (uuid 66c6990a-9881-4c85-b51c-e31985d842f5)
  )
  (wire (pts (xy 231.14 21.59) (xy 242.57 21.59))
    (stroke (width 0) (type default))
    (uuid 67e0c773-a1b9-4a93-8383-8d202a4f1991)
  )
  (wire (pts (xy 74.93 50.8) (xy 77.47 50.8))
    (stroke (width 0) (type default))
    (uuid 68ec18c0-bbc9-42be-bf9d-4ca3189925fc)
  )
  (wire (pts (xy 109.22 113.03) (xy 111.76 113.03))
    (stroke (width 0) (type default))
    (uuid 6caac997-7cc8-4414-ab72-25dde42998c6)
  )
  (wire (pts (xy 137.16 68.58) (xy 137.16 63.5))
    (stroke (width 0) (type default))
    (uuid 6cc1419c-c9aa-4734-b6c4-0b2c234f29c1)
  )
  (wire (pts (xy 146.05 55.88) (xy 146.05 64.77))
    (stroke (width 0) (type default))
    (uuid 6f4de395-aa40-4810-953b-6ebcc579d35c)
  )
  (wire (pts (xy 52.07 118.11) (xy 52.07 127))
    (stroke (width 0) (type default))
    (uuid 6fbc21eb-d7fb-45dc-8fad-f5639fceea9f)
  )
  (wire (pts (xy 243.84 146.05) (xy 252.73 146.05))
    (stroke (width 0) (type default))
    (uuid 700fbd9e-6828-42f8-aa39-0dc4313cd2a0)
  )
  (wire (pts (xy 77.47 81.28) (xy 123.19 81.28))
    (stroke (width 0) (type default))
    (uuid 70898ba6-2c04-45e2-946b-b1b38165c5f5)
  )
  (wire (pts (xy 260.35 107.95) (xy 252.73 107.95))
    (stroke (width 0) (type default))
    (uuid 70e9303b-7690-4e75-8ae6-3ef86c81d659)
  )
  (wire (pts (xy 252.73 99.06) (xy 240.03 99.06))
    (stroke (width 0) (type default))
    (uuid 71f299df-7459-4097-9bd6-dcef9e9bba87)
  )
  (wire (pts (xy 262.89 143.51) (xy 269.24 143.51))
    (stroke (width 0) (type default))
    (uuid 74506c8c-aff3-4544-a92d-45f045abb132)
  )
  (wire (pts (xy 93.98 139.7) (xy 93.98 143.51))
    (stroke (width 0) (type default))
    (uuid 789378f0-9033-4492-8435-d6a7e539bd4d)
  )
  (wire (pts (xy 109.22 139.7) (xy 93.98 139.7))
    (stroke (width 0) (type default))
    (uuid 7942ffbc-3a0e-4546-b771-2edbb6fcb40d)
  )
  (wire (pts (xy 252.73 116.84) (xy 252.73 125.73))
    (stroke (width 0) (type default))
    (uuid 7aedc05c-17bd-4ee3-b0e5-a875c4621790)
  )
  (wire (pts (xy 50.8 31.75) (xy 40.64 31.75))
    (stroke (width 0) (type default))
    (uuid 82866f4f-b5a0-4aea-a0e3-0f5572f924ad)
  )
  (wire (pts (xy 76.2 129.54) (xy 76.2 139.7))
    (stroke (width 0) (type default))
    (uuid 84cebefd-a4ac-4fa1-87b2-8a77d57b7333)
  )
  (wire (pts (xy 109.22 124.46) (xy 109.22 120.65))
    (stroke (width 0) (type default))
    (uuid 85018111-6635-4db6-9d26-edc147374f23)
  )
  (wire (pts (xy 119.38 59.69) (xy 119.38 55.88))
    (stroke (width 0) (type default))
    (uuid 85dff82b-7b5c-4dec-8c9b-5d216268b0cd)
  )
  (wire (pts (xy 50.8 59.69) (xy 60.96 59.69))
    (stroke (width 0) (type default))
    (uuid 86f77dee-8949-4902-b4ea-6c04cfa2203e)
  )
  (wire (pts (xy 109.22 118.11) (xy 115.57 118.11))
    (stroke (width 0) (type default))
    (uuid 88964340-4ded-4c06-ba7c-84146185ab07)
  )
  (wire (pts (xy 119.38 67.31) (xy 119.38 72.39))
    (stroke (width 0) (type default))
    (uuid 89139990-be86-41d8-a03b-212c381ce41b)
  )
  (wire (pts (xy 231.14 30.48) (xy 242.57 30.48))
    (stroke (width 0) (type default))
    (uuid 8b342158-df6b-45d0-9bc0-c0946871855d)
  )
  (wire (pts (xy 124.46 31.75) (xy 124.46 48.26))
    (stroke (width 0) (type default))
    (uuid 8bbf9e73-60b8-446a-afa7-8ae86b5ae5d5)
  )
  (wire (pts (xy 62.23 99.06) (xy 62.23 110.49))
    (stroke (width 0) (type default))
    (uuid 8ecf94b1-ccab-4483-9f70-3cb36f222cb6)
  )
  (wire (pts (xy 137.16 55.88) (xy 146.05 55.88))
    (stroke (width 0) (type default))
    (uuid 8fd96468-151f-43ac-ba39-1d85d5b6f0bc)
  )
  (wire (pts (xy 138.43 135.89) (xy 138.43 138.43))
    (stroke (width 0) (type default))
    (uuid 928b6158-5527-49f0-9111-dc15589c3b1d)
  )
  (wire (pts (xy 138.43 146.05) (xy 138.43 148.59))
    (stroke (width 0) (type default))
    (uuid 947ec541-734f-47e9-acd3-487d3be37d44)
  )
  (wire (pts (xy 107.95 57.15) (xy 107.95 53.34))
    (stroke (width 0) (type default))
    (uuid 94b2b100-6d3d-4efc-84ed-3a6a18964080)
  )
  (wire (pts (xy 252.73 81.28) (xy 252.73 90.17))
    (stroke (width 0) (type default))
    (uuid 99b7043a-9ea4-4146-ab84-bb481034db2f)
  )
  (wire (pts (xy 114.3 50.8) (xy 114.3 72.39))
    (stroke (width 0) (type default))
    (uuid a0387f7e-92c0-400c-890b-6f81ce4da2d8)
  )
  (wire (pts (xy 41.91 118.11) (xy 41.91 127))
    (stroke (width 0) (type default))
    (uuid a106dfb8-a537-4fd3-b257-1e52fc8dcc3c)
  )
  (wire (pts (xy 74.93 54.61) (xy 74.93 50.8))
    (stroke (width 0) (type default))
    (uuid a1a60814-f0eb-4fea-bf6c-e35ec0be28a4)
  )
  (wire (pts (xy 260.35 116.84) (xy 252.73 116.84))
    (stroke (width 0) (type default))
    (uuid a2c4662c-6cef-4292-977d-b5862feaa67f)
  )
  (wire (pts (xy 123.19 68.58) (xy 137.16 68.58))
    (stroke (width 0) (type default))
    (uuid a48fc083-6b37-4500-ab96-e0764bf5590a)
  )
  (wire (pts (xy 124.46 48.26) (xy 107.95 48.26))
    (stroke (width 0) (type default))
    (uuid a6925e1c-26b2-4747-8c33-65afd9035883)
  )
  (wire (pts (xy 77.47 35.56) (xy 110.49 35.56))
    (stroke (width 0) (type default))
    (uuid a947d07b-3413-4603-8429-3496c33b0f21)
  )
  (wire (pts (xy 120.65 134.62) (xy 120.65 139.7))
    (stroke (width 0) (type default))
    (uuid aa22718e-8801-47f3-bd34-6b1b8bdb40a7)
  )
  (wire (pts (xy 147.32 123.19) (xy 147.32 132.08))
    (stroke (width 0) (type default))
    (uuid aa35b124-2e01-42e8-b287-f5823d19646b)
  )
  (wire (pts (xy 92.71 71.12) (xy 92.71 72.39))
    (stroke (width 0) (type default))
    (uuid ad5b9820-35c1-4baa-8bb0-f608b59dc951)
  )
  (wire (pts (xy 77.47 53.34) (xy 77.47 81.28))
    (stroke (width 0) (type default))
    (uuid b126ee87-4001-45e1-8fc5-deca927a2646)
  )
  (wire (pts (xy 132.08 55.88) (xy 137.16 55.88))
    (stroke (width 0) (type default))
    (uuid b3d46c3d-71b6-46fd-805b-d912a1f27fdd)
  )
  (wire (pts (xy 119.38 55.88) (xy 124.46 55.88))
    (stroke (width 0) (type default))
    (uuid b5afdfe6-ef13-4294-836f-9e473ea46582)
  )
  (wire (pts (xy 62.23 99.06) (xy 125.73 99.06))
    (stroke (width 0) (type default))
    (uuid bb705a87-3eef-4fde-968e-8ce332a17f6b)
  )
  (wire (pts (xy 125.73 115.57) (xy 109.22 115.57))
    (stroke (width 0) (type default))
    (uuid bb7ee985-2874-4b0e-ba2d-8e5d9da3ac2b)
  )
  (wire (pts (xy 52.07 127) (xy 62.23 127))
    (stroke (width 0) (type default))
    (uuid bbc111e1-6474-4cd3-bada-6a6510acdfd7)
  )
  (wire (pts (xy 76.2 139.7) (xy 93.98 139.7))
    (stroke (width 0) (type default))
    (uuid be3dd636-1608-4be1-83e9-4c74a960254d)
  )
  (wire (pts (xy 60.96 31.75) (xy 60.96 43.18))
    (stroke (width 0) (type default))
    (uuid c04ceb39-3680-432a-a090-9571e692b0c9)
  )
  (wire (pts (xy 137.16 68.58) (xy 137.16 71.12))
    (stroke (width 0) (type default))
    (uuid c067aca5-0d2f-4bc0-a010-1a672526b182)
  )
  (wire (pts (xy 120.65 127) (xy 120.65 123.19))
    (stroke (width 0) (type default))
    (uuid c1d33499-7071-4938-85fd-60cee9e73ff9)
  )
  (wire (pts (xy 76.2 121.92) (xy 76.2 118.11))
    (stroke (width 0) (type default))
    (uuid c2235ece-dff8-4b9b-af3b-4bfc89249178)
  )
  (wire (pts (xy 40.64 59.69) (xy 50.8 59.69))
    (stroke (width 0) (type default))
    (uuid c41ffdbc-67a0-471c-897e-e1e16a29b1a0)
  )
  (wire (pts (xy 50.8 43.18) (xy 50.8 31.75))
    (stroke (width 0) (type default))
    (uuid c55653dd-5537-4dd1-ac16-d47832a9bbdd)
  )
  (wire (pts (xy 77.47 43.18) (xy 77.47 45.72))
    (stroke (width 0) (type default))
    (uuid d0e6d1e5-e842-4286-9572-573a43eb4996)
  )
  (wire (pts (xy 260.35 81.28) (xy 252.73 81.28))
    (stroke (width 0) (type default))
    (uuid d63985a1-693e-4849-8ba0-600e6c69035f)
  )
  (wire (pts (xy 124.46 135.89) (xy 124.46 148.59))
    (stroke (width 0) (type default))
    (uuid d85fa552-1a78-458f-b177-9b805471f250)
  )
  (wire (pts (xy 78.74 120.65) (xy 78.74 148.59))
    (stroke (width 0) (type default))
    (uuid d99390ed-6d97-42bb-937b-79639d6919d7)
  )
  (wire (pts (xy 119.38 45.72) (xy 119.38 55.88))
    (stroke (width 0) (type default))
    (uuid dbda51a6-be87-4ee5-b60b-32326601ad3e)
  )
  (wire (pts (xy 52.07 99.06) (xy 41.91 99.06))
    (stroke (width 0) (type default))
    (uuid df8607b8-2e48-4835-b520-84e6524c30fd)
  )
  (wire (pts (xy 50.8 50.8) (xy 50.8 59.69))
    (stroke (width 0) (type default))
    (uuid ecab4e16-8514-4f4f-ade8-292465e544ee)
  )
  (wire (pts (xy 111.76 113.03) (xy 120.65 113.03))
    (stroke (width 0) (type default))
    (uuid f7e307f7-a4e1-4da1-8e98-c35c0b0379b2)
  )
  (wire (pts (xy 147.32 148.59) (xy 170.18 148.59))
    (stroke (width 0) (type default))
    (uuid f9b14beb-0d41-497b-9e30-b5377947da1b)
  )
  (wire (pts (xy 107.95 50.8) (xy 114.3 50.8))
    (stroke (width 0) (type default))
    (uuid fac65927-3e70-4b66-8af9-7dc3fab71b2a)
  )
  (wire (pts (xy 78.74 110.49) (xy 78.74 113.03))
    (stroke (width 0) (type default))
    (uuid fc89b34c-e73a-44bc-856e-965b16e6fd5b)
  )
  (wire (pts (xy 120.65 139.7) (xy 115.57 139.7))
    (stroke (width 0) (type default))
    (uuid fcdff3b2-f3b9-4e1a-98a9-1816843f2d74)
  )

  (label "V_BURN1" (at 168.91 55.88 180) (fields_autoplaced)
    (effects (font (size 1.27 1.27)) (justify right bottom))
    (uuid 06558c61-a050-4d9f-af7d-892f76f6da8a)
  )
  (label "GND_D" (at 93.98 143.51 0) (fields_autoplaced)
    (effects (font (size 1.27 1.27)) (justify left bottom))
    (uuid 13144096-ba2f-4763-a501-3c026a3391ff)
  )
  (label "V_BURN1" (at 242.57 21.59 180) (fields_autoplaced)
    (effects (font (size 1.27 1.27)) (justify right bottom))
    (uuid 30835ff8-ef2d-4007-b1b7-7bbabd15bb70)
  )
  (label "GND_D" (at 92.71 76.2 0) (fields_autoplaced)
    (effects (font (size 1.27 1.27)) (justify left bottom))
    (uuid 35e3fb90-6503-4afa-bffc-666cdb731a15)
  )
  (label "DET_2" (at 264.16 148.59 0) (fields_autoplaced)
    (effects (font (size 1.27 1.27)) (justify left bottom))
    (uuid 3e8d2f25-728c-4978-b40b-3be3f7302ba7)
  )
  (label "DET_1" (at 264.16 143.51 0) (fields_autoplaced)
    (effects (font (size 1.27 1.27)) (justify left bottom))
    (uuid 430c5b41-f9be-4e18-ba1a-808fd7afe13f)
  )
  (label "GND_D" (at 168.91 81.28 180) (fields_autoplaced)
    (effects (font (size 1.27 1.27)) (justify right bottom))
    (uuid 4f70745a-1e2a-4cd6-bacb-14451ab4cd89)
  )
  (label "GND_D" (at 240.03 125.73 0) (fields_autoplaced)
    (effects (font (size 1.27 1.27)) (justify left bottom))
    (uuid 5809f19a-a13b-4402-a48f-9a0604ba601b)
  )
  (label "GND_D" (at 62.23 142.24 0) (fields_autoplaced)
    (effects (font (size 1.27 1.27)) (justify left bottom))
    (uuid 5ac9b11d-2a58-44a2-bbc6-5dedd031db86)
  )
  (label "GND_D" (at 170.18 148.59 180) (fields_autoplaced)
    (effects (font (size 1.27 1.27)) (justify right bottom))
    (uuid 65652f70-7be0-48c5-b868-ab169c3f6607)
  )
  (label "GND_D" (at 242.57 59.69 180) (fields_autoplaced)
    (effects (font (size 1.27 1.27)) (justify right bottom))
    (uuid 6a5d9ff8-e77f-4f19-a22c-9f13e5d40bc2)
  )
  (label "V_DEPLOY" (at 240.03 99.06 0) (fields_autoplaced)
    (effects (font (size 1.27 1.27)) (justify left bottom))
    (uuid 87272705-f0ea-4349-9f2d-73826b9ef383)
  )
  (label "GND_D" (at 242.57 30.48 180) (fields_autoplaced)
    (effects (font (size 1.27 1.27)) (justify right bottom))
    (uuid 8b4c82d8-152b-4153-b87f-08427b1ad957)
  )
  (label "GND" (at 246.38 146.05 0) (fields_autoplaced)
    (effects (font (size 1.27 1.27)) (justify left bottom))
    (uuid 90432e98-dbca-4dda-9f88-6def17991de1)
  )
  (label "V_DEPLOY" (at 22.86 99.06 0) (fields_autoplaced)
    (effects (font (size 1.27 1.27)) (justify left bottom))
    (uuid ab8d64be-49fd-4fd8-8bcf-050236f01168)
  )
  (label "V_BURN2" (at 242.57 48.26 180) (fields_autoplaced)
    (effects (font (size 1.27 1.27)) (justify right bottom))
    (uuid cf8c1e3c-6d4a-4ff4-aec7-a53a47a22b6e)
  )
  (label "V_BURN2" (at 170.18 123.19 180) (fields_autoplaced)
    (effects (font (size 1.27 1.27)) (justify right bottom))
    (uuid d1fe073b-8cfc-461f-b89b-7510092824bb)
  )
  (label "V_DEPLOY" (at 21.59 31.75 0) (fields_autoplaced)
    (effects (font (size 1.27 1.27)) (justify left bottom))
    (uuid f908d5b3-9879-4716-95fb-71eea38f711b)
  )
  (label "GND_D" (at 60.96 74.93 0) (fields_autoplaced)
    (effects (font (size 1.27 1.27)) (justify left bottom))
    (uuid f94bc069-99ab-4e95-8170-5598fb051329)
  )

  (symbol (lib_id "Connector:Screw_Terminal_01x01") (at 274.32 143.51 0) (unit 1)
    (in_bom yes) (on_board yes) (dnp no)
    (uuid 00000000-0000-0000-0000-00005dc00368)
    (property "Reference" "J6" (at 276.352 142.4432 0)
      (effects (font (size 1.27 1.27)) (justify left))
    )
    (property "Value" "NC" (at 276.352 144.7546 0)
      (effects (font (size 1.27 1.27)) (justify left))
    )
    (property "Footprint" "lsf-kicad-lib:KEYSTONE-1502-2" (at 274.32 143.51 0)
      (effects (font (size 1.27 1.27)) hide)
    )
    (property "Datasheet" "~" (at 274.32 143.51 0)
      (effects (font (size 1.27 1.27)) hide)
    )
    (property "Mfr." "KEYSTONE" (at 274.32 143.51 0)
      (effects (font (size 1.27 1.27)) hide)
    )
    (property "PartNumber" "KEYSTONE-1502-2" (at 274.32 143.51 0)
      (effects (font (size 1.27 1.27)) hide)
    )
    (pin "1" (uuid 3a207612-de42-4a3a-b447-ec546aab86e6))
    (instances
      (project "picobus-deployer-pcb"
        (path "/12643a92-991a-4335-aa18-743a3eda9124"
          (reference "J6") (unit 1)
        )
      )
    )
  )

  (symbol (lib_id "Connector:Screw_Terminal_01x01") (at 274.32 148.59 0) (unit 1)
    (in_bom yes) (on_board yes) (dnp no)
    (uuid 00000000-0000-0000-0000-00005dc00bf8)
    (property "Reference" "J7" (at 276.352 147.5232 0)
      (effects (font (size 1.27 1.27)) (justify left))
    )
    (property "Value" "NO" (at 276.352 149.8346 0)
      (effects (font (size 1.27 1.27)) (justify left))
    )
    (property "Footprint" "lsf-kicad-lib:KEYSTONE-1502-2" (at 274.32 148.59 0)
      (effects (font (size 1.27 1.27)) hide)
    )
    (property "Datasheet" "~" (at 274.32 148.59 0)
      (effects (font (size 1.27 1.27)) hide)
    )
    (property "Mfr." "KEYSTONE" (at 274.32 148.59 0)
      (effects (font (size 1.27 1.27)) hide)
    )
    (property "PartNumber" "KEYSTONE-1502-2" (at 274.32 148.59 0)
      (effects (font (size 1.27 1.27)) hide)
    )
    (pin "1" (uuid d3eda7eb-5f41-45ce-b51f-76078f2e9329))
    (instances
      (project "picobus-deployer-pcb"
        (path "/12643a92-991a-4335-aa18-743a3eda9124"
          (reference "J7") (unit 1)
        )
      )
    )
  )

  (symbol (lib_id "Connector:Screw_Terminal_01x01") (at 238.76 146.05 180) (unit 1)
    (in_bom yes) (on_board yes) (dnp no)
    (uuid 00000000-0000-0000-0000-00005dc00d40)
    (property "Reference" "J5" (at 240.8428 140.335 0)
      (effects (font (size 1.27 1.27)))
    )
    (property "Value" "COMM" (at 240.8428 142.6464 0)
      (effects (font (size 1.27 1.27)))
    )
    (property "Footprint" "lsf-kicad-lib:KEYSTONE-1502-2" (at 238.76 146.05 0)
      (effects (font (size 1.27 1.27)) hide)
    )
    (property "Datasheet" "~" (at 238.76 146.05 0)
      (effects (font (size 1.27 1.27)) hide)
    )
    (property "Mfr." "KEYSTONE" (at 238.76 146.05 0)
      (effects (font (size 1.27 1.27)) hide)
    )
    (property "PartNumber" "KEYSTONE-1502-2" (at 238.76 146.05 0)
      (effects (font (size 1.27 1.27)) hide)
    )
    (pin "1" (uuid 01e8058c-15be-4df2-a342-c14db8a53b2e))
    (instances
      (project "picobus-deployer-pcb"
        (path "/12643a92-991a-4335-aa18-743a3eda9124"
          (reference "J5") (unit 1)
        )
      )
    )
  )

  (symbol (lib_id "Connector:Screw_Terminal_01x01") (at 265.43 81.28 0) (unit 1)
    (in_bom yes) (on_board yes) (dnp no)
    (uuid 00000000-0000-0000-0000-00005dc00f6a)
    (property "Reference" "J8" (at 267.462 80.2132 0)
      (effects (font (size 1.27 1.27)) (justify left))
    )
    (property "Value" "V DEPLOY" (at 267.462 82.5246 0)
      (effects (font (size 1.27 1.27)) (justify left))
    )
    (property "Footprint" "lsf-kicad-lib:KEYSTONE-1502-2" (at 265.43 81.28 0)
      (effects (font (size 1.27 1.27)) hide)
    )
    (property "Datasheet" "~" (at 265.43 81.28 0)
      (effects (font (size 1.27 1.27)) hide)
    )
    (property "Mfr." "KEYSTONE" (at 265.43 81.28 0)
      (effects (font (size 1.27 1.27)) hide)
    )
    (property "PartNumber" "KEYSTONE-1502-2" (at 265.43 81.28 0)
      (effects (font (size 1.27 1.27)) hide)
    )
    (pin "1" (uuid 2153ce1e-fa46-44dd-b2cd-24d80afe7a75))
    (instances
      (project "picobus-deployer-pcb"
        (path "/12643a92-991a-4335-aa18-743a3eda9124"
          (reference "J8") (unit 1)
        )
      )
    )
  )

  (symbol (lib_id "Connector:Screw_Terminal_01x01") (at 265.43 90.17 0) (unit 1)
    (in_bom yes) (on_board yes) (dnp no)
    (uuid 00000000-0000-0000-0000-00005dc0120d)
    (property "Reference" "J9" (at 267.462 89.1032 0)
      (effects (font (size 1.27 1.27)) (justify left))
    )
    (property "Value" "V DEPLOY" (at 267.462 91.4146 0)
      (effects (font (size 1.27 1.27)) (justify left))
    )
    (property "Footprint" "lsf-kicad-lib:KEYSTONE-1502-2" (at 265.43 90.17 0)
      (effects (font (size 1.27 1.27)) hide)
    )
    (property "Datasheet" "~" (at 265.43 90.17 0)
      (effects (font (size 1.27 1.27)) hide)
    )
    (property "Mfr." "KEYSTONE" (at 265.43 90.17 0)
      (effects (font (size 1.27 1.27)) hide)
    )
    (property "PartNumber" "KEYSTONE-1502-2" (at 265.43 90.17 0)
      (effects (font (size 1.27 1.27)) hide)
    )
    (pin "1" (uuid 58a1ec40-82ea-4fba-9940-824e9122b4bd))
    (instances
      (project "picobus-deployer-pcb"
        (path "/12643a92-991a-4335-aa18-743a3eda9124"
          (reference "J9") (unit 1)
        )
      )
    )
  )

  (symbol (lib_id "Connector:Screw_Terminal_01x01") (at 265.43 99.06 0) (unit 1)
    (in_bom yes) (on_board yes) (dnp no)
    (uuid 00000000-0000-0000-0000-00005dc02b11)
    (property "Reference" "J10" (at 267.462 97.9932 0)
      (effects (font (size 1.27 1.27)) (justify left))
    )
    (property "Value" "V DEPLOY" (at 267.462 100.3046 0)
      (effects (font (size 1.27 1.27)) (justify left))
    )
    (property "Footprint" "lsf-kicad-lib:KEYSTONE-1502-2" (at 265.43 99.06 0)
      (effects (font (size 1.27 1.27)) hide)
    )
    (property "Datasheet" "~" (at 265.43 99.06 0)
      (effects (font (size 1.27 1.27)) hide)
    )
    (property "Mfr." "KEYSTONE" (at 265.43 99.06 0)
      (effects (font (size 1.27 1.27)) hide)
    )
    (property "PartNumber" "KEYSTONE-1502-2" (at 265.43 99.06 0)
      (effects (font (size 1.27 1.27)) hide)
    )
    (pin "1" (uuid 19b50ccc-83de-4e12-aaa3-864df62f9c44))
    (instances
      (project "picobus-deployer-pcb"
        (path "/12643a92-991a-4335-aa18-743a3eda9124"
          (reference "J10") (unit 1)
        )
      )
    )
  )

  (symbol (lib_id "Connector:Screw_Terminal_01x01") (at 265.43 107.95 0) (unit 1)
    (in_bom yes) (on_board yes) (dnp no)
    (uuid 00000000-0000-0000-0000-00005dc02b17)
    (property "Reference" "J11" (at 267.462 106.8832 0)
      (effects (font (size 1.27 1.27)) (justify left))
    )
    (property "Value" "GND" (at 267.462 109.1946 0)
      (effects (font (size 1.27 1.27)) (justify left))
    )
    (property "Footprint" "lsf-kicad-lib:KEYSTONE-1502-2" (at 265.43 107.95 0)
      (effects (font (size 1.27 1.27)) hide)
    )
    (property "Datasheet" "~" (at 265.43 107.95 0)
      (effects (font (size 1.27 1.27)) hide)
    )
    (property "Mfr." "KEYSTONE" (at 265.43 107.95 0)
      (effects (font (size 1.27 1.27)) hide)
    )
    (property "PartNumber" "KEYSTONE-1502-2" (at 265.43 107.95 0)
      (effects (font (size 1.27 1.27)) hide)
    )
    (pin "1" (uuid 97be9d30-aee9-4658-945d-e0f115de0415))
    (instances
      (project "picobus-deployer-pcb"
        (path "/12643a92-991a-4335-aa18-743a3eda9124"
          (reference "J11") (unit 1)
        )
      )
    )
  )

  (symbol (lib_id "Connector:Screw_Terminal_01x01") (at 265.43 116.84 0) (unit 1)
    (in_bom yes) (on_board yes) (dnp no)
    (uuid 00000000-0000-0000-0000-00005dc02b1d)
    (property "Reference" "J12" (at 267.462 115.7732 0)
      (effects (font (size 1.27 1.27)) (justify left))
    )
    (property "Value" "GND" (at 267.462 118.0846 0)
      (effects (font (size 1.27 1.27)) (justify left))
    )
    (property "Footprint" "lsf-kicad-lib:KEYSTONE-1502-2" (at 265.43 116.84 0)
      (effects (font (size 1.27 1.27)) hide)
    )
    (property "Datasheet" "~" (at 265.43 116.84 0)
      (effects (font (size 1.27 1.27)) hide)
    )
    (property "Mfr." "KEYSTONE" (at 265.43 116.84 0)
      (effects (font (size 1.27 1.27)) hide)
    )
    (property "PartNumber" "KEYSTONE-1502-2" (at 265.43 116.84 0)
      (effects (font (size 1.27 1.27)) hide)
    )
    (pin "1" (uuid afebed93-0808-4608-bd00-89a641af1e21))
    (instances
      (project "picobus-deployer-pcb"
        (path "/12643a92-991a-4335-aa18-743a3eda9124"
          (reference "J12") (unit 1)
        )
      )
    )
  )

  (symbol (lib_id "Connector:Screw_Terminal_01x01") (at 265.43 125.73 0) (unit 1)
    (in_bom yes) (on_board yes) (dnp no)
    (uuid 00000000-0000-0000-0000-00005dc02b23)
    (property "Reference" "J13" (at 267.462 124.6632 0)
      (effects (font (size 1.27 1.27)) (justify left))
    )
    (property "Value" "GND" (at 267.462 126.9746 0)
      (effects (font (size 1.27 1.27)) (justify left))
    )
    (property "Footprint" "lsf-kicad-lib:KEYSTONE-1502-2" (at 265.43 125.73 0)
      (effects (font (size 1.27 1.27)) hide)
    )
    (property "Datasheet" "~" (at 265.43 125.73 0)
      (effects (font (size 1.27 1.27)) hide)
    )
    (property "Mfr." "KEYSTONE" (at 265.43 125.73 0)
      (effects (font (size 1.27 1.27)) hide)
    )
    (property "PartNumber" "KEYSTONE-1502-2" (at 265.43 125.73 0)
      (effects (font (size 1.27 1.27)) hide)
    )
    (pin "1" (uuid 13951c78-7737-4397-a006-e21c58f05702))
    (instances
      (project "picobus-deployer-pcb"
        (path "/12643a92-991a-4335-aa18-743a3eda9124"
          (reference "J13") (unit 1)
        )
      )
    )
  )

  (symbol (lib_id "Switch:SW_SPDT") (at 257.81 146.05 0) (unit 1)
    (in_bom yes) (on_board yes) (dnp no)
    (uuid 00000000-0000-0000-0000-00005dc02fff)
    (property "Reference" "SW1" (at 257.81 138.811 0)
      (effects (font (size 1.27 1.27)))
    )
    (property "Value" "SW_SPDT" (at 257.81 141.1224 0)
      (effects (font (size 1.27 1.27)))
    )
    (property "Footprint" "lsf-kicad-lib:D2F-L" (at 257.81 146.05 0)
      (effects (font (size 1.27 1.27)) hide)
    )
    (property "Datasheet" "~" (at 257.81 146.05 0)
      (effects (font (size 1.27 1.27)) hide)
    )
    (property "Mfr." "Omron" (at 257.81 146.05 0)
      (effects (font (size 1.27 1.27)) hide)
    )
    (property "PartNumber" "D2F-L" (at 257.81 146.05 0)
      (effects (font (size 1.27 1.27)) hide)
    )
    (pin "1" (uuid a85dba30-966a-4ecd-bc9d-6e20ee767de8))
    (pin "2" (uuid a0bbb1d5-1715-4d72-b433-3feb65aaf27f))
    (pin "3" (uuid 719d0555-6ab6-4e53-b6ba-e486b802a571))
    (instances
      (project "picobus-deployer-pcb"
        (path "/12643a92-991a-4335-aa18-743a3eda9124"
          (reference "SW1") (unit 1)
        )
      )
    )
  )

  (symbol (lib_id "Connector:Screw_Terminal_01x01") (at 226.06 30.48 180) (unit 1)
    (in_bom yes) (on_board yes) (dnp no)
    (uuid 00000000-0000-0000-0000-00005dc17b73)
    (property "Reference" "J2" (at 224.028 31.5468 0)
      (effects (font (size 1.27 1.27)) (justify left))
    )
    (property "Value" "GND" (at 224.028 29.2354 0)
      (effects (font (size 1.27 1.27)) (justify left))
    )
    (property "Footprint" "lsf-kicad-lib:KEYSTONE-1502-2" (at 226.06 30.48 0)
      (effects (font (size 1.27 1.27)) hide)
    )
    (property "Datasheet" "~" (at 226.06 30.48 0)
      (effects (font (size 1.27 1.27)) hide)
    )
    (property "Mfr." "KEYSTONE" (at 226.06 30.48 0)
      (effects (font (size 1.27 1.27)) hide)
    )
    (property "PartNumber" "KEYSTONE-1502-2" (at 226.06 30.48 0)
      (effects (font (size 1.27 1.27)) hide)
    )
    (pin "1" (uuid 13f0b1d5-bd0b-42f7-a1be-2688ddd800a6))
    (instances
      (project "picobus-deployer-pcb"
        (path "/12643a92-991a-4335-aa18-743a3eda9124"
          (reference "J2") (unit 1)
        )
      )
    )
  )

  (symbol (lib_id "Connector:Screw_Terminal_01x01") (at 226.06 21.59 180) (unit 1)
    (in_bom yes) (on_board yes) (dnp no)
    (uuid 00000000-0000-0000-0000-00005dc17ff5)
    (property "Reference" "J1" (at 224.028 22.6568 0)
      (effects (font (size 1.27 1.27)) (justify left))
    )
    (property "Value" "V_BURN1" (at 224.028 20.3454 0)
      (effects (font (size 1.27 1.27)) (justify left))
    )
    (property "Footprint" "lsf-kicad-lib:KEYSTONE-1502-2" (at 226.06 21.59 0)
      (effects (font (size 1.27 1.27)) hide)
    )
    (property "Datasheet" "~" (at 226.06 21.59 0)
      (effects (font (size 1.27 1.27)) hide)
    )
    (property "Mfr." "KEYSTONE" (at 226.06 21.59 0)
      (effects (font (size 1.27 1.27)) hide)
    )
    (property "PartNumber" "KEYSTONE-1502-2" (at 226.06 21.59 0)
      (effects (font (size 1.27 1.27)) hide)
    )
    (pin "1" (uuid 3769dd47-0012-454c-9127-d227a027e0d4))
    (instances
      (project "picobus-deployer-pcb"
        (path "/12643a92-991a-4335-aa18-743a3eda9124"
          (reference "J1") (unit 1)
        )
      )
    )
  )

  (symbol (lib_id "Connector:Screw_Terminal_01x01") (at 226.06 59.69 180) (unit 1)
    (in_bom yes) (on_board yes) (dnp no)
    (uuid 00000000-0000-0000-0000-00005dc1c079)
    (property "Reference" "J4" (at 224.028 60.7568 0)
      (effects (font (size 1.27 1.27)) (justify left))
    )
    (property "Value" "GND" (at 224.028 58.4454 0)
      (effects (font (size 1.27 1.27)) (justify left))
    )
    (property "Footprint" "lsf-kicad-lib:KEYSTONE-1502-2" (at 226.06 59.69 0)
      (effects (font (size 1.27 1.27)) hide)
    )
    (property "Datasheet" "~" (at 226.06 59.69 0)
      (effects (font (size 1.27 1.27)) hide)
    )
    (property "Mfr." "KEYSTONE" (at 226.06 59.69 0)
      (effects (font (size 1.27 1.27)) hide)
    )
    (property "PartNumber" "KEYSTONE-1502-2" (at 226.06 59.69 0)
      (effects (font (size 1.27 1.27)) hide)
    )
    (pin "1" (uuid 0729e5eb-425c-46f0-8297-ba1d033839b4))
    (instances
      (project "picobus-deployer-pcb"
        (path "/12643a92-991a-4335-aa18-743a3eda9124"
          (reference "J4") (unit 1)
        )
      )
    )
  )

  (symbol (lib_id "Connector:Screw_Terminal_01x01") (at 226.06 48.26 180) (unit 1)
    (in_bom yes) (on_board yes) (dnp no)
    (uuid 00000000-0000-0000-0000-00005dc1c07f)
    (property "Reference" "J3" (at 224.028 49.3268 0)
      (effects (font (size 1.27 1.27)) (justify left))
    )
    (property "Value" "V_BURN2" (at 224.028 47.0154 0)
      (effects (font (size 1.27 1.27)) (justify left))
    )
    (property "Footprint" "lsf-kicad-lib:KEYSTONE-1502-2" (at 226.06 48.26 0)
      (effects (font (size 1.27 1.27)) hide)
    )
    (property "Datasheet" "~" (at 226.06 48.26 0)
      (effects (font (size 1.27 1.27)) hide)
    )
    (property "Mfr." "KEYSTONE" (at 226.06 48.26 0)
      (effects (font (size 1.27 1.27)) hide)
    )
    (property "PartNumber" "KEYSTONE-1502-2" (at 226.06 48.26 0)
      (effects (font (size 1.27 1.27)) hide)
    )
    (pin "1" (uuid 0953b2db-bc41-4af1-8a04-dedb07eb2d0f))
    (instances
      (project "picobus-deployer-pcb"
        (path "/12643a92-991a-4335-aa18-743a3eda9124"
          (reference "J3") (unit 1)
        )
      )
    )
  )

  (symbol (lib_id "Device:C") (at 50.8 46.99 0) (unit 1)
    (in_bom yes) (on_board yes) (dnp no)
    (uuid 00000000-0000-0000-0000-00005dceb5bb)
    (property "Reference" "Cin21" (at 53.721 45.8216 0)
      (effects (font (size 1.27 1.27)) (justify left))
    )
    (property "Value" "10u" (at 53.721 48.133 0)
      (effects (font (size 1.27 1.27)) (justify left))
    )
    (property "Footprint" "Capacitor_SMD:C_1210_3225Metric_Pad1.33x2.70mm_HandSolder" (at 51.7652 50.8 0)
      (effects (font (size 1.27 1.27)) hide)
    )
    (property "Datasheet" "~" (at 50.8 46.99 0)
      (effects (font (size 1.27 1.27)) hide)
    )
    (property "PartNumber" "C3225X7R1H106M250AC" (at 50.8 46.99 0)
      (effects (font (size 1.27 1.27)) hide)
    )
    (pin "1" (uuid f159c1ec-ccb4-4c26-9831-c77813cac6bc))
    (pin "2" (uuid bf9ab7f9-9d9e-4666-b536-17e391113a38))
    (instances
      (project "picobus-deployer-pcb"
        (path "/12643a92-991a-4335-aa18-743a3eda9124"
          (reference "Cin21") (unit 1)
        )
      )
    )
  )

  (symbol (lib_id "Device:C") (at 77.47 39.37 180) (unit 1)
    (in_bom yes) (on_board yes) (dnp no)
    (uuid 00000000-0000-0000-0000-00005dcec076)
    (property "Reference" "Cbst11" (at 74.549 40.5384 0)
      (effects (font (size 1.27 1.27)) (justify left))
    )
    (property "Value" "10n" (at 74.549 38.227 0)
      (effects (font (size 1.27 1.27)) (justify left))
    )
    (property "Footprint" "Capacitor_SMD:C_0603_1608Metric_Pad1.08x0.95mm_HandSolder" (at 76.5048 35.56 0)
      (effects (font (size 1.27 1.27)) hide)
    )
    (property "Datasheet" "" (at 77.47 39.37 0)
      (effects (font (size 1.27 1.27)) hide)
    )
    (property "Mfr." "Kemet" (at 77.47 39.37 0)
      (effects (font (size 1.27 1.27)) hide)
    )
    (property "PartNumber" "C0603C103K5RACTU" (at 77.47 39.37 0)
      (effects (font (size 1.27 1.27)) hide)
    )
    (pin "1" (uuid 82d305a0-7698-4d0b-b338-a3783cf1d0d0))
    (pin "2" (uuid 514b5c68-8251-49d2-a162-8f9663e45769))
    (instances
      (project "picobus-deployer-pcb"
        (path "/12643a92-991a-4335-aa18-743a3eda9124"
          (reference "Cbst11") (unit 1)
        )
      )
    )
  )

  (symbol (lib_id "Device:L") (at 128.27 55.88 90) (unit 1)
    (in_bom yes) (on_board yes) (dnp no)
    (uuid 00000000-0000-0000-0000-00005dd16388)
    (property "Reference" "L11" (at 128.27 58.42 90)
      (effects (font (size 1.27 1.27)))
    )
    (property "Value" "10u" (at 128.27 53.34 90)
      (effects (font (size 1.27 1.27)))
    )
    (property "Footprint" "Inductor_SMD:L_Coilcraft_XAL6060-XXX" (at 128.27 55.88 0)
      (effects (font (size 1.27 1.27)) hide)
    )
    (property "Datasheet" "~" (at 128.27 55.88 0)
      (effects (font (size 1.27 1.27)) hide)
    )
    (property "Mfr." "Bourns" (at 128.27 55.88 0)
      (effects (font (size 1.27 1.27)) hide)
    )
    (property "PartNumber" "XAL6060-103MEC" (at 128.27 55.88 0)
      (effects (font (size 1.27 1.27)) hide)
    )
    (pin "1" (uuid a1c273db-8dc2-425e-9cce-dbbaa0ca8c8a))
    (pin "2" (uuid b42c4174-434f-4b0d-b8ec-7437f2258d6c))
    (instances
      (project "picobus-deployer-pcb"
        (path "/12643a92-991a-4335-aa18-743a3eda9124"
          (reference "L11") (unit 1)
        )
      )
    )
  )

  (symbol (lib_id "Device:R") (at 137.16 74.93 0) (unit 1)
    (in_bom yes) (on_board yes) (dnp no)
    (uuid 00000000-0000-0000-0000-00005dd1f532)
    (property "Reference" "Rfb11" (at 138.938 73.7616 0)
      (effects (font (size 1.27 1.27)) (justify left))
    )
    (property "Value" "1k" (at 138.938 76.073 0)
      (effects (font (size 1.27 1.27)) (justify left))
    )
    (property "Footprint" "Resistor_SMD:R_0603_1608Metric_Pad0.98x0.95mm_HandSolder" (at 135.382 74.93 90)
      (effects (font (size 1.27 1.27)) hide)
    )
    (property "Datasheet" "~" (at 137.16 74.93 0)
      (effects (font (size 1.27 1.27)) hide)
    )
    (property "Mfr." "YAGEO" (at 137.16 74.93 0)
      (effects (font (size 1.27 1.27)) hide)
    )
    (property "PartNumber" "RC0603FR­071KL" (at 137.16 74.93 0)
      (effects (font (size 1.27 1.27)) hide)
    )
    (pin "1" (uuid fc7dd93a-a691-4f12-ad3d-1983b6ccf4ad))
    (pin "2" (uuid 08a1f297-e69c-4e1e-8a16-e1dba30a356e))
    (instances
      (project "picobus-deployer-pcb"
        (path "/12643a92-991a-4335-aa18-743a3eda9124"
          (reference "Rfb11") (unit 1)
        )
      )
    )
  )

  (symbol (lib_id "Device:R") (at 137.16 59.69 0) (unit 1)
    (in_bom yes) (on_board yes) (dnp no)
    (uuid 00000000-0000-0000-0000-00005dd1fa13)
    (property "Reference" "Rfb21" (at 138.938 58.5216 0)
      (effects (font (size 1.27 1.27)) (justify left))
    )
    (property "Value" "560" (at 138.938 60.833 0)
      (effects (font (size 1.27 1.27)) (justify left))
    )
    (property "Footprint" "Resistor_SMD:R_0603_1608Metric_Pad0.98x0.95mm_HandSolder" (at 135.382 59.69 90)
      (effects (font (size 1.27 1.27)) hide)
    )
    (property "Datasheet" "~" (at 137.16 59.69 0)
      (effects (font (size 1.27 1.27)) hide)
    )
    (property "Mfr." "YAGEO" (at 137.16 59.69 0)
      (effects (font (size 1.27 1.27)) hide)
    )
    (property "PartNumber" "RC0603FR­07560RL" (at 137.16 59.69 0)
      (effects (font (size 1.27 1.27)) hide)
    )
    (pin "1" (uuid 331fde63-fffb-42a1-b005-77842c92df4c))
    (pin "2" (uuid 918d2c17-bc95-41ba-8ebd-b37439afa670))
    (instances
      (project "picobus-deployer-pcb"
        (path "/12643a92-991a-4335-aa18-743a3eda9124"
          (reference "Rfb21") (unit 1)
        )
      )
    )
  )

  (symbol (lib_id "Device:C") (at 146.05 68.58 0) (unit 1)
    (in_bom yes) (on_board yes) (dnp no)
    (uuid 00000000-0000-0000-0000-00005dd2e9e2)
    (property "Reference" "Cout11" (at 148.971 67.4116 0)
      (effects (font (size 1.27 1.27)) (justify left))
    )
    (property "Value" "100u" (at 148.971 69.723 0)
      (effects (font (size 1.27 1.27)) (justify left))
    )
    (property "Footprint" "Capacitor_Tantalum_SMD:CP_EIA-3528-12_Kemet-T_Pad1.50x2.35mm_HandSolder" (at 147.0152 72.39 0)
      (effects (font (size 1.27 1.27)) hide)
    )
    (property "Datasheet" "~" (at 146.05 68.58 0)
      (effects (font (size 1.27 1.27)) hide)
    )
    (property "Mfr." "Murata" (at 146.05 68.58 0)
      (effects (font (size 1.27 1.27)) hide)
    )
    (property "PartNumber" "GRT32EC70J107ME13L" (at 146.05 68.58 0)
      (effects (font (size 1.27 1.27)) hide)
    )
    (pin "1" (uuid 83bd9da4-de98-4058-b128-eadd6c71b16e))
    (pin "2" (uuid cd44994e-9fdb-43e8-beb7-d2888ca72986))
    (instances
      (project "picobus-deployer-pcb"
        (path "/12643a92-991a-4335-aa18-743a3eda9124"
          (reference "Cout11") (unit 1)
        )
      )
    )
  )

  (symbol (lib_id "Device:C") (at 40.64 46.99 0) (unit 1)
    (in_bom yes) (on_board yes) (dnp no)
    (uuid 00000000-0000-0000-0000-00005dd41d31)
    (property "Reference" "Cin11" (at 43.561 45.8216 0)
      (effects (font (size 1.27 1.27)) (justify left))
    )
    (property "Value" "10u" (at 43.561 48.133 0)
      (effects (font (size 1.27 1.27)) (justify left))
    )
    (property "Footprint" "Capacitor_SMD:C_1210_3225Metric_Pad1.33x2.70mm_HandSolder" (at 41.6052 50.8 0)
      (effects (font (size 1.27 1.27)) hide)
    )
    (property "Datasheet" "~" (at 40.64 46.99 0)
      (effects (font (size 1.27 1.27)) hide)
    )
    (property "PartNumber" "C3225X7R1H106M250AC" (at 40.64 46.99 0)
      (effects (font (size 1.27 1.27)) hide)
    )
    (pin "1" (uuid e8c763c3-08f7-4de1-9deb-312cdbc37275))
    (pin "2" (uuid e75cb1f8-4c2d-4218-8135-116f78f9c1c7))
    (instances
      (project "picobus-deployer-pcb"
        (path "/12643a92-991a-4335-aa18-743a3eda9124"
          (reference "Cin11") (unit 1)
        )
      )
    )
  )

  (symbol (lib_id "power:PWR_FLAG") (at 124.46 31.75 0) (unit 1)
    (in_bom yes) (on_board yes) (dnp no)
    (uuid 00000000-0000-0000-0000-00005dde466b)
    (property "Reference" "#FLG0101" (at 124.46 29.845 0)
      (effects (font (size 1.27 1.27)) hide)
    )
    (property "Value" "PWR_FLAG" (at 124.46 27.3558 0)
      (effects (font (size 1.27 1.27)))
    )
    (property "Footprint" "" (at 124.46 31.75 0)
      (effects (font (size 1.27 1.27)) hide)
    )
    (property "Datasheet" "~" (at 124.46 31.75 0)
      (effects (font (size 1.27 1.27)) hide)
    )
    (pin "1" (uuid 8b68ff4f-b0d0-421f-b703-49aa7bd60130))
    (instances
      (project "picobus-deployer-pcb"
        (path "/12643a92-991a-4335-aa18-743a3eda9124"
          (reference "#FLG0101") (unit 1)
        )
      )
    )
  )

  (symbol (lib_id "Mechanical:MountingHole") (at 259.08 20.32 0) (unit 1)
    (in_bom no) (on_board yes) (dnp no)
    (uuid 00000000-0000-0000-0000-000061536ac5)
    (property "Reference" "H101" (at 261.62 19.1516 0)
      (effects (font (size 1.27 1.27)) (justify left))
    )
    (property "Value" "MountingHole" (at 261.62 21.463 0)
      (effects (font (size 1.27 1.27)) (justify left))
    )
    (property "Footprint" "MountingHole:MountingHole_2.2mm_M2_DIN965" (at 259.08 20.32 0)
      (effects (font (size 1.27 1.27)) hide)
    )
    (property "Datasheet" "~" (at 259.08 20.32 0)
      (effects (font (size 1.27 1.27)) hide)
    )
    (property "Part Number" "" (at 259.08 20.32 0)
      (effects (font (size 1.27 1.27)) hide)
    )
    (instances
      (project "picobus-deployer-pcb"
        (path "/12643a92-991a-4335-aa18-743a3eda9124"
          (reference "H101") (unit 1)
        )
      )
    )
  )

  (symbol (lib_id "Mechanical:MountingHole") (at 259.08 25.4 0) (unit 1)
    (in_bom no) (on_board yes) (dnp no)
    (uuid 00000000-0000-0000-0000-0000615375e4)
    (property "Reference" "H102" (at 261.62 24.2316 0)
      (effects (font (size 1.27 1.27)) (justify left))
    )
    (property "Value" "MountingHole" (at 261.62 26.543 0)
      (effects (font (size 1.27 1.27)) (justify left))
    )
    (property "Footprint" "MountingHole:MountingHole_2.2mm_M2_DIN965" (at 259.08 25.4 0)
      (effects (font (size 1.27 1.27)) hide)
    )
    (property "Datasheet" "~" (at 259.08 25.4 0)
      (effects (font (size 1.27 1.27)) hide)
    )
    (property "Part Number" "" (at 259.08 25.4 0)
      (effects (font (size 1.27 1.27)) hide)
    )
    (instances
      (project "picobus-deployer-pcb"
        (path "/12643a92-991a-4335-aa18-743a3eda9124"
          (reference "H102") (unit 1)
        )
      )
    )
  )

  (symbol (lib_id "Mechanical:MountingHole") (at 259.08 30.48 0) (unit 1)
    (in_bom no) (on_board yes) (dnp no)
    (uuid 00000000-0000-0000-0000-000061537835)
    (property "Reference" "H103" (at 261.62 29.3116 0)
      (effects (font (size 1.27 1.27)) (justify left))
    )
    (property "Value" "MountingHole" (at 261.62 31.623 0)
      (effects (font (size 1.27 1.27)) (justify left))
    )
    (property "Footprint" "MountingHole:MountingHole_2.2mm_M2_DIN965" (at 259.08 30.48 0)
      (effects (font (size 1.27 1.27)) hide)
    )
    (property "Datasheet" "~" (at 259.08 30.48 0)
      (effects (font (size 1.27 1.27)) hide)
    )
    (property "Part Number" "" (at 259.08 30.48 0)
      (effects (font (size 1.27 1.27)) hide)
    )
    (instances
      (project "picobus-deployer-pcb"
        (path "/12643a92-991a-4335-aa18-743a3eda9124"
          (reference "H103") (unit 1)
        )
      )
    )
  )

  (symbol (lib_id "Mechanical:MountingHole") (at 259.08 35.56 0) (unit 1)
    (in_bom no) (on_board yes) (dnp no)
    (uuid 00000000-0000-0000-0000-000061537a40)
    (property "Reference" "H104" (at 261.62 34.3916 0)
      (effects (font (size 1.27 1.27)) (justify left))
    )
    (property "Value" "MountingHole" (at 261.62 36.703 0)
      (effects (font (size 1.27 1.27)) (justify left))
    )
    (property "Footprint" "MountingHole:MountingHole_2.2mm_M2_DIN965" (at 259.08 35.56 0)
      (effects (font (size 1.27 1.27)) hide)
    )
    (property "Datasheet" "~" (at 259.08 35.56 0)
      (effects (font (size 1.27 1.27)) hide)
    )
    (property "Part Number" "" (at 259.08 35.56 0)
      (effects (font (size 1.27 1.27)) hide)
    )
    (instances
      (project "picobus-deployer-pcb"
        (path "/12643a92-991a-4335-aa18-743a3eda9124"
          (reference "H104") (unit 1)
        )
      )
    )
  )

  (symbol (lib_id "Mechanical:MountingHole") (at 259.08 40.64 0) (unit 1)
    (in_bom no) (on_board yes) (dnp no)
    (uuid 00000000-0000-0000-0000-000061537b75)
    (property "Reference" "H105" (at 261.62 39.4716 0)
      (effects (font (size 1.27 1.27)) (justify left))
    )
    (property "Value" "MountingHole" (at 261.62 41.783 0)
      (effects (font (size 1.27 1.27)) (justify left))
    )
    (property "Footprint" "MountingHole:MountingHole_2.2mm_M2_DIN965" (at 259.08 40.64 0)
      (effects (font (size 1.27 1.27)) hide)
    )
    (property "Datasheet" "~" (at 259.08 40.64 0)
      (effects (font (size 1.27 1.27)) hide)
    )
    (property "Part Number" "" (at 259.08 40.64 0)
      (effects (font (size 1.27 1.27)) hide)
    )
    (instances
      (project "picobus-deployer-pcb"
        (path "/12643a92-991a-4335-aa18-743a3eda9124"
          (reference "H105") (unit 1)
        )
      )
    )
  )

  (symbol (lib_id "Mechanical:MountingHole") (at 259.08 45.72 0) (unit 1)
    (in_bom no) (on_board yes) (dnp no)
    (uuid 00000000-0000-0000-0000-000061537e12)
    (property "Reference" "H106" (at 261.62 44.5516 0)
      (effects (font (size 1.27 1.27)) (justify left))
    )
    (property "Value" "MountingHole" (at 261.62 46.863 0)
      (effects (font (size 1.27 1.27)) (justify left))
    )
    (property "Footprint" "MountingHole:MountingHole_2.2mm_M2_DIN965" (at 259.08 45.72 0)
      (effects (font (size 1.27 1.27)) hide)
    )
    (property "Datasheet" "~" (at 259.08 45.72 0)
      (effects (font (size 1.27 1.27)) hide)
    )
    (property "Part Number" "" (at 259.08 45.72 0)
      (effects (font (size 1.27 1.27)) hide)
    )
    (instances
      (project "picobus-deployer-pcb"
        (path "/12643a92-991a-4335-aa18-743a3eda9124"
          (reference "H106") (unit 1)
        )
      )
    )
  )

  (symbol (lib_id "Mechanical:MountingHole") (at 259.08 50.8 0) (unit 1)
    (in_bom no) (on_board yes) (dnp no)
    (uuid 00000000-0000-0000-0000-00006153801f)
    (property "Reference" "H107" (at 261.62 49.6316 0)
      (effects (font (size 1.27 1.27)) (justify left))
    )
    (property "Value" "MountingHole" (at 261.62 51.943 0)
      (effects (font (size 1.27 1.27)) (justify left))
    )
    (property "Footprint" "MountingHole:MountingHole_2.2mm_M2_DIN965" (at 259.08 50.8 0)
      (effects (font (size 1.27 1.27)) hide)
    )
    (property "Datasheet" "~" (at 259.08 50.8 0)
      (effects (font (size 1.27 1.27)) hide)
    )
    (property "Part Number" "" (at 259.08 50.8 0)
      (effects (font (size 1.27 1.27)) hide)
    )
    (instances
      (project "picobus-deployer-pcb"
        (path "/12643a92-991a-4335-aa18-743a3eda9124"
          (reference "H107") (unit 1)
        )
      )
    )
  )

  (symbol (lib_id "Mechanical:MountingHole") (at 259.08 55.88 0) (unit 1)
    (in_bom no) (on_board yes) (dnp no)
    (uuid 00000000-0000-0000-0000-000061538273)
    (property "Reference" "H108" (at 261.62 54.7116 0)
      (effects (font (size 1.27 1.27)) (justify left))
    )
    (property "Value" "MountingHole" (at 261.62 57.023 0)
      (effects (font (size 1.27 1.27)) (justify left))
    )
    (property "Footprint" "MountingHole:MountingHole_2.2mm_M2_DIN965" (at 259.08 55.88 0)
      (effects (font (size 1.27 1.27)) hide)
    )
    (property "Datasheet" "~" (at 259.08 55.88 0)
      (effects (font (size 1.27 1.27)) hide)
    )
    (property "Part Number" "" (at 259.08 55.88 0)
      (effects (font (size 1.27 1.27)) hide)
    )
    (instances
      (project "picobus-deployer-pcb"
        (path "/12643a92-991a-4335-aa18-743a3eda9124"
          (reference "H108") (unit 1)
        )
      )
    )
  )

  (symbol (lib_id "Device:R") (at 76.2 125.73 0) (unit 1)
    (in_bom yes) (on_board yes) (dnp no)
    (uuid 0b3cbbc5-57d2-484d-a047-74122fb1b563)
    (property "Reference" "R32" (at 73.66 128.27 90)
      (effects (font (size 1.27 1.27)) (justify left))
    )
    (property "Value" "20k" (at 76.2 127 90)
      (effects (font (size 1.27 1.27)) (justify left))
    )
    (property "Footprint" "Resistor_SMD:R_0805_2012Metric" (at 74.422 125.73 90)
      (effects (font (size 1.27 1.27)) hide)
    )
    (property "Datasheet" "~" (at 76.2 125.73 0)
      (effects (font (size 1.27 1.27)) hide)
    )
    (property "Mfr." "Panasonic" (at 76.2 125.73 0)
      (effects (font (size 1.27 1.27)) hide)
    )
    (property "PartNumber" "ERJ-6ENF1913V" (at 76.2 125.73 0)
      (effects (font (size 1.27 1.27)) hide)
    )
    (pin "1" (uuid be86593c-7fcb-4156-88af-2c749f397564))
    (pin "2" (uuid a77db290-9ddf-4772-8af5-dce819714e29))
    (instances
      (project "picobus-deployer-pcb"
        (path "/12643a92-991a-4335-aa18-743a3eda9124"
          (reference "R32") (unit 1)
        )
      )
    )
  )

  (symbol (lib_id "Device:R") (at 138.43 127 0) (unit 1)
    (in_bom yes) (on_board yes) (dnp no)
    (uuid 2bf1d862-6ed7-4f4e-8989-5ca1f00ab53f)
    (property "Reference" "Rfb22" (at 140.208 125.8316 0)
      (effects (font (size 1.27 1.27)) (justify left))
    )
    (property "Value" "560" (at 140.208 128.143 0)
      (effects (font (size 1.27 1.27)) (justify left))
    )
    (property "Footprint" "Resistor_SMD:R_0603_1608Metric_Pad0.98x0.95mm_HandSolder" (at 136.652 127 90)
      (effects (font (size 1.27 1.27)) hide)
    )
    (property "Datasheet" "~" (at 138.43 127 0)
      (effects (font (size 1.27 1.27)) hide)
    )
    (property "Mfr." "YAGEO" (at 138.43 127 0)
      (effects (font (size 1.27 1.27)) hide)
    )
    (property "PartNumber" "RC0603FR­07560RL" (at 138.43 127 0)
      (effects (font (size 1.27 1.27)) hide)
    )
    (pin "1" (uuid fd252da3-46eb-4aa0-b046-33793ba1bda8))
    (pin "2" (uuid 60572d7b-f2d3-4789-a877-5d2d6971af32))
    (instances
      (project "picobus-deployer-pcb"
        (path "/12643a92-991a-4335-aa18-743a3eda9124"
          (reference "Rfb22") (unit 1)
        )
      )
    )
  )

  (symbol (lib_id "Device:C") (at 52.07 114.3 0) (unit 1)
    (in_bom yes) (on_board yes) (dnp no)
    (uuid 3420e95c-b66a-4971-b8ff-43fc269c8f90)
    (property "Reference" "Cin22" (at 54.991 113.1316 0)
      (effects (font (size 1.27 1.27)) (justify left))
    )
    (property "Value" "10u" (at 54.991 115.443 0)
      (effects (font (size 1.27 1.27)) (justify left))
    )
    (property "Footprint" "Capacitor_SMD:C_1210_3225Metric_Pad1.33x2.70mm_HandSolder" (at 53.0352 118.11 0)
      (effects (font (size 1.27 1.27)) hide)
    )
    (property "Datasheet" "~" (at 52.07 114.3 0)
      (effects (font (size 1.27 1.27)) hide)
    )
    (property "PartNumber" "C3225X7R1H106M250AC" (at 52.07 114.3 0)
      (effects (font (size 1.27 1.27)) hide)
    )
    (pin "1" (uuid bdabb6d2-cc99-4b47-af5c-be953375ba48))
    (pin "2" (uuid 93b353de-d7d3-4755-917a-5b75069ccd61))
    (instances
      (project "picobus-deployer-pcb"
        (path "/12643a92-991a-4335-aa18-743a3eda9124"
          (reference "Cin22") (unit 1)
        )
      )
    )
  )

  (symbol (lib_id "Diode:PMEG6010CEH") (at 120.65 130.81 270) (unit 1)
    (in_bom yes) (on_board yes) (dnp no) (fields_autoplaced)
    (uuid 42d0f501-1810-4d28-8b60-d500fee7dc9f)
    (property "Reference" "D12" (at 123.19 129.2225 90)
      (effects (font (size 1.27 1.27)) (justify left))
    )
    (property "Value" "PMEG6010CEH" (at 123.19 131.7625 90)
      (effects (font (size 1.27 1.27)) (justify left))
    )
    (property "Footprint" "Diode_SMD:D_SOD-123" (at 116.205 130.81 0)
      (effects (font (size 1.27 1.27)) hide)
    )
    (property "Datasheet" "https://assets.nexperia.com/documents/data-sheet/PMEG6010CEH_PMEG6010CEJ.pdf" (at 120.65 130.81 0)
      (effects (font (size 1.27 1.27)) hide)
    )
    (property "Mfr." "Nexperia" (at 120.65 130.81 90)
      (effects (font (size 1.27 1.27)) hide)
    )
    (property "PartNumber" "PMEG6010CEGWJ" (at 120.65 130.81 0)
      (effects (font (size 1.27 1.27)) hide)
    )
    (pin "1" (uuid 88c751a3-6f23-4074-a6bf-6797602bc32b))
    (pin "2" (uuid f2ebeb51-62ee-44de-a476-4b8276eb9ad0))
    (instances
      (project "picobus-deployer-pcb"
        (path "/12643a92-991a-4335-aa18-743a3eda9124"
          (reference "D12") (unit 1)
        )
      )
    )
  )

  (symbol (lib_id "Diode:PMEG6010CEH") (at 119.38 63.5 270) (unit 1)
    (in_bom yes) (on_board yes) (dnp no) (fields_autoplaced)
    (uuid 4448f801-0b71-46e6-99ee-dccc12a39b91)
    (property "Reference" "D11" (at 121.92 61.9125 90)
      (effects (font (size 1.27 1.27)) (justify left))
    )
    (property "Value" "PMEG6010CEH" (at 121.92 64.4525 90)
      (effects (font (size 1.27 1.27)) (justify left))
    )
    (property "Footprint" "Diode_SMD:D_SOD-123" (at 114.935 63.5 0)
      (effects (font (size 1.27 1.27)) hide)
    )
    (property "Datasheet" "https://assets.nexperia.com/documents/data-sheet/PMEG6010CEH_PMEG6010CEJ.pdf" (at 119.38 63.5 0)
      (effects (font (size 1.27 1.27)) hide)
    )
    (property "Mfr." "Nexperia" (at 119.38 63.5 90)
      (effects (font (size 1.27 1.27)) hide)
    )
    (property "PartNumber" "PMEG6010CEGWJ" (at 119.38 63.5 0)
      (effects (font (size 1.27 1.27)) hide)
    )
    (pin "1" (uuid a5ca6ce6-7a6c-451a-901b-6411aaa064f4))
    (pin "2" (uuid c230c02e-cd2b-4e3f-94eb-3d1f6a557802))
    (instances
      (project "picobus-deployer-pcb"
        (path "/12643a92-991a-4335-aa18-743a3eda9124"
          (reference "D11") (unit 1)
        )
      )
    )
  )

  (symbol (lib_id "library:LM22673QMRE-5.0_NOPB") (at 77.47 45.72 0) (unit 1)
    (in_bom yes) (on_board yes) (dnp no) (fields_autoplaced)
    (uuid 582e3f90-45c7-42cf-8c9a-2f3a6bd0d87b)
    (property "Reference" "IC11" (at 92.71 38.1 0)
      (effects (font (size 1.27 1.27)))
    )
    (property "Value" "LM22673QMRE-ADJ_NOPB" (at 92.71 40.64 0)
      (effects (font (size 1.27 1.27)))
    )
    (property "Footprint" "Package_SO:TI_SO-PowerPAD-8_ThermalVias" (at 104.14 140.64 0)
      (effects (font (size 1.27 1.27)) (justify left top) hide)
    )
    (property "Datasheet" "http://www.ti.com/lit/gpn/lm22673-q1" (at 104.14 240.64 0)
      (effects (font (size 1.27 1.27)) (justify left top) hide)
    )
    (property "PartNumber" "LM22673QMRE-ADJ_NOPB" (at 77.47 45.72 0)
      (effects (font (size 1.27 1.27)) hide)
    )
    (property "Mfr." "Texas Instruments" (at 77.47 45.72 0)
      (effects (font (size 1.27 1.27)) hide)
    )
    (pin "1" (uuid 507baa1a-c040-491e-b2fc-70684c5852cb))
    (pin "2" (uuid e156fc87-c11e-48cd-ba9b-513a4b6268e2))
    (pin "3" (uuid fabf0b0f-4878-4ffb-91a7-a3f4eb8ff105))
    (pin "4" (uuid 3970d791-146a-4c48-965f-a398c1297153))
    (pin "5" (uuid 3374535a-b5f1-4a6d-b7b5-2d4485e43c17))
    (pin "6" (uuid f4256c3f-9ac7-4be4-b47f-3b41e950783f))
    (pin "7" (uuid 6d27e1bb-da5d-4d55-ae7a-1e07f5916c98))
    (pin "8" (uuid 56c1755d-32d3-4df9-8c19-6fa434af99a3))
    (pin "9" (uuid 93312c6b-f5bb-4243-b975-dc8c1974ee0c))
    (instances
      (project "picobus-deployer-pcb"
        (path "/12643a92-991a-4335-aa18-743a3eda9124"
          (reference "IC11") (unit 1)
        )
      )
    )
  )

  (symbol (lib_id "Device:L") (at 129.54 123.19 90) (unit 1)
    (in_bom yes) (on_board yes) (dnp no)
    (uuid 58bdb33b-bd1c-4a0b-bd02-33877f91c647)
    (property "Reference" "L12" (at 129.54 125.73 90)
      (effects (font (size 1.27 1.27)))
    )
    (property "Value" "10u" (at 129.54 120.65 90)
      (effects (font (size 1.27 1.27)))
    )
    (property "Footprint" "Inductor_SMD:L_Coilcraft_XAL6060-XXX" (at 129.54 123.19 0)
      (effects (font (size 1.27 1.27)) hide)
    )
    (property "Datasheet" "~" (at 129.54 123.19 0)
      (effects (font (size 1.27 1.27)) hide)
    )
    (property "Mfr." "Bourns" (at 129.54 123.19 0)
      (effects (font (size 1.27 1.27)) hide)
    )
    (property "PartNumber" "XAL6060-103MEC" (at 129.54 123.19 0)
      (effects (font (size 1.27 1.27)) hide)
    )
    (pin "1" (uuid d5fa9bec-deec-4427-a5b8-22273f7ac1ad))
    (pin "2" (uuid 972cd786-1a57-4c2c-afcd-3c8119768c03))
    (instances
      (project "picobus-deployer-pcb"
        (path "/12643a92-991a-4335-aa18-743a3eda9124"
          (reference "L12") (unit 1)
        )
      )
    )
  )

  (symbol (lib_id "Device:C") (at 109.22 128.27 0) (unit 1)
    (in_bom yes) (on_board yes) (dnp no)
    (uuid 6372ab9d-b583-402f-b12d-dc528d04d865)
    (property "Reference" "Csoft12" (at 113.03 127 0)
      (effects (font (size 1.27 1.27)))
    )
    (property "Value" "39n" (at 113.03 129.54 0)
      (effects (font (size 1.27 1.27)))
    )
    (property "Footprint" "Capacitor_SMD:C_0402_1005Metric_Pad0.74x0.62mm_HandSolder" (at 110.1852 132.08 0)
      (effects (font (size 1.27 1.27)) hide)
    )
    (property "Datasheet" "~" (at 109.22 128.27 0)
      (effects (font (size 1.27 1.27)) hide)
    )
    (property "Mfr." "Murata" (at 109.22 128.27 0)
      (effects (font (size 1.27 1.27)) hide)
    )
    (property "PartNumber" "GRM155R71E393KA88D" (at 109.22 128.27 0)
      (effects (font (size 1.27 1.27)) hide)
    )
    (pin "1" (uuid 45ebcbaa-ea14-4782-b62c-1797b45fc0e3))
    (pin "2" (uuid 902d3e8a-7125-404d-b6b8-f39fcaffa7f5))
    (instances
      (project "picobus-deployer-pcb"
        (path "/12643a92-991a-4335-aa18-743a3eda9124"
          (reference "Csoft12") (unit 1)
        )
      )
    )
  )

  (symbol (lib_id "Device:R") (at 74.93 58.42 0) (unit 1)
    (in_bom yes) (on_board yes) (dnp no)
    (uuid 64dd8226-4a6f-4713-947d-2cf5b6191462)
    (property "Reference" "R31" (at 72.39 60.96 90)
      (effects (font (size 1.27 1.27)) (justify left))
    )
    (property "Value" "20k" (at 74.93 59.69 90)
      (effects (font (size 1.27 1.27)) (justify left))
    )
    (property "Footprint" "Resistor_SMD:R_0805_2012Metric" (at 73.152 58.42 90)
      (effects (font (size 1.27 1.27)) hide)
    )
    (property "Datasheet" "~" (at 74.93 58.42 0)
      (effects (font (size 1.27 1.27)) hide)
    )
    (property "Mfr." "Panasonic" (at 74.93 58.42 0)
      (effects (font (size 1.27 1.27)) hide)
    )
    (property "PartNumber" "ERJ-6ENF1913V" (at 74.93 58.42 0)
      (effects (font (size 1.27 1.27)) hide)
    )
    (pin "1" (uuid 937a39d6-2d6e-4315-9d64-0b758f2b8f28))
    (pin "2" (uuid 53d8b4c5-11c6-4a52-a573-cacac64d5725))
    (instances
      (project "picobus-deployer-pcb"
        (path "/12643a92-991a-4335-aa18-743a3eda9124"
          (reference "R31") (unit 1)
        )
      )
    )
  )

  (symbol (lib_id "Device:C") (at 41.91 114.3 0) (unit 1)
    (in_bom yes) (on_board yes) (dnp no)
    (uuid 6b356b68-530f-4d80-ab2b-eb062aaf64ef)
    (property "Reference" "Cin12" (at 44.831 113.1316 0)
      (effects (font (size 1.27 1.27)) (justify left))
    )
    (property "Value" "10u" (at 44.831 115.443 0)
      (effects (font (size 1.27 1.27)) (justify left))
    )
    (property "Footprint" "Capacitor_SMD:C_1210_3225Metric_Pad1.33x2.70mm_HandSolder" (at 42.8752 118.11 0)
      (effects (font (size 1.27 1.27)) hide)
    )
    (property "Datasheet" "~" (at 41.91 114.3 0)
      (effects (font (size 1.27 1.27)) hide)
    )
    (property "PartNumber" "C3225X7R1H106M250AC" (at 41.91 114.3 0)
      (effects (font (size 1.27 1.27)) hide)
    )
    (pin "1" (uuid c27edffa-5949-4f80-b1f2-c9aba30fbd35))
    (pin "2" (uuid 5d0bcc5c-61e5-4cfd-88e9-6de8c1e2931a))
    (instances
      (project "picobus-deployer-pcb"
        (path "/12643a92-991a-4335-aa18-743a3eda9124"
          (reference "Cin12") (unit 1)
        )
      )
    )
  )

  (symbol (lib_id "library:LM22673QMRE-5.0_NOPB") (at 78.74 113.03 0) (unit 1)
    (in_bom yes) (on_board yes) (dnp no) (fields_autoplaced)
    (uuid 988435df-a394-42e5-974f-dc76904aa7d4)
    (property "Reference" "IC12" (at 93.98 105.41 0)
      (effects (font (size 1.27 1.27)))
    )
    (property "Value" "LM22673QMRE-ADJ_NOPB" (at 93.98 107.95 0)
      (effects (font (size 1.27 1.27)))
    )
    (property "Footprint" "Package_SO:TI_SO-PowerPAD-8_ThermalVias" (at 105.41 207.95 0)
      (effects (font (size 1.27 1.27)) (justify left top) hide)
    )
    (property "Datasheet" "http://www.ti.com/lit/gpn/lm22673-q1" (at 105.41 307.95 0)
      (effects (font (size 1.27 1.27)) (justify left top) hide)
    )
    (property "Mfr." "Texas Instruments" (at 78.74 113.03 0)
      (effects (font (size 1.27 1.27)) hide)
    )
    (property "PartNumber" "LM22673QMRE-ADJ_NOPB" (at 78.74 113.03 0)
      (effects (font (size 1.27 1.27)) hide)
    )
    (pin "1" (uuid 9bcc6d75-33ad-41d4-a0dd-de8f6cf44947))
    (pin "2" (uuid d6d8ee58-bf09-4aad-bbb7-3dfd6991aa75))
    (pin "3" (uuid 48942a15-092c-4fe2-b3c6-05ce8589f862))
    (pin "4" (uuid a103b454-bf76-4baf-96f8-a548fa97b5ce))
    (pin "5" (uuid 25f9cebe-8799-475b-a7cb-58db03c6f8fc))
    (pin "6" (uuid 0df84d18-54e8-431a-bac3-5098eb8bb113))
    (pin "7" (uuid 8cee78d7-d48a-44b4-a4f4-1e3e33f83ac0))
    (pin "8" (uuid 02da556b-2251-472f-8ad0-9a1c801374e4))
    (pin "9" (uuid 0f95200f-2203-45f7-bb06-f69f79880f49))
    (instances
      (project "picobus-deployer-pcb"
        (path "/12643a92-991a-4335-aa18-743a3eda9124"
          (reference "IC12") (unit 1)
        )
      )
    )
  )

  (symbol (lib_id "Device:C") (at 107.95 60.96 0) (unit 1)
    (in_bom yes) (on_board yes) (dnp no)
    (uuid aae9ff2a-0eb1-40f8-b09e-6caf280da59b)
    (property "Reference" "Csoft11" (at 111.76 59.69 0)
      (effects (font (size 1.27 1.27)))
    )
    (property "Value" "39n" (at 111.76 62.23 0)
      (effects (font (size 1.27 1.27)))
    )
    (property "Footprint" "Capacitor_SMD:C_0402_1005Metric_Pad0.74x0.62mm_HandSolder" (at 108.9152 64.77 0)
      (effects (font (size 1.27 1.27)) hide)
    )
    (property "Datasheet" "~" (at 107.95 60.96 0)
      (effects (font (size 1.27 1.27)) hide)
    )
    (property "Mfr." "Murata" (at 107.95 60.96 0)
      (effects (font (size 1.27 1.27)) hide)
    )
    (property "PartNumber" "GRM155R71E393KA88D" (at 107.95 60.96 0)
      (effects (font (size 1.27 1.27)) hide)
    )
    (pin "1" (uuid c456d12b-5bc4-4a45-986b-4a32cfa8639f))
    (pin "2" (uuid c9be28e5-c500-4375-a4a6-62cf522c759d))
    (instances
      (project "picobus-deployer-pcb"
        (path "/12643a92-991a-4335-aa18-743a3eda9124"
          (reference "Csoft11") (unit 1)
        )
      )
    )
  )

  (symbol (lib_id "Device:C") (at 60.96 46.99 0) (unit 1)
    (in_bom yes) (on_board yes) (dnp no) (fields_autoplaced)
    (uuid b2dd1e5a-45da-4236-899b-dfbc15ba1551)
    (property "Reference" "Cinx11" (at 64.77 45.72 0)
      (effects (font (size 1.27 1.27)) (justify left))
    )
    (property "Value" "1uF" (at 64.77 48.26 0)
      (effects (font (size 1.27 1.27)) (justify left))
    )
    (property "Footprint" "Capacitor_SMD:C_0603_1608Metric_Pad1.08x0.95mm_HandSolder" (at 61.9252 50.8 0)
      (effects (font (size 1.27 1.27)) hide)
    )
    (property "Datasheet" "https://gr.mouser.com/ProductDetail/TDK/C1608X5R1H105K080AB?qs=NRhsANhppD%252BLmxnPDqAv3A%3D%3D" (at 60.96 46.99 0)
      (effects (font (size 1.27 1.27)) hide)
    )
    (property "Mfr." "TDK" (at 60.96 46.99 0)
      (effects (font (size 1.27 1.27)) hide)
    )
    (property "PartNumber" "C1608X5R1H105K080AB" (at 60.96 46.99 0)
      (effects (font (size 1.27 1.27)) hide)
    )
    (pin "1" (uuid 636da43a-f198-4e5d-bc5b-03dc099cd84b))
    (pin "2" (uuid aa0b39e5-ff6d-45a0-8ef0-33d0519fbc8b))
    (instances
      (project "picobus-deployer-pcb"
        (path "/12643a92-991a-4335-aa18-743a3eda9124"
          (reference "Cinx11") (unit 1)
        )
      )
    )
  )

  (symbol (lib_id "Device:C") (at 62.23 114.3 0) (unit 1)
    (in_bom yes) (on_board yes) (dnp no) (fields_autoplaced)
    (uuid c5e290a2-0ab4-4829-abe2-4a6f537aaaf0)
    (property "Reference" "Cinx12" (at 66.04 113.03 0)
      (effects (font (size 1.27 1.27)) (justify left))
    )
    (property "Value" "1uF" (at 66.04 115.57 0)
      (effects (font (size 1.27 1.27)) (justify left))
    )
    (property "Footprint" "Capacitor_SMD:C_0603_1608Metric_Pad1.08x0.95mm_HandSolder" (at 63.1952 118.11 0)
      (effects (font (size 1.27 1.27)) hide)
    )
    (property "Datasheet" "https://gr.mouser.com/ProductDetail/TDK/C1608X5R1H105K080AB?qs=NRhsANhppD%252BLmxnPDqAv3A%3D%3D" (at 62.23 114.3 0)
      (effects (font (size 1.27 1.27)) hide)
    )
    (property "Mfr." "TDK" (at 62.23 114.3 0)
      (effects (font (size 1.27 1.27)) hide)
    )
    (property "PartNumber" "C1608X5R1H105K080AB" (at 62.23 114.3 0)
      (effects (font (size 1.27 1.27)) hide)
    )
    (pin "1" (uuid ec7ce184-e2f4-4781-be7f-3d1e8035c7a9))
    (pin "2" (uuid 977ab149-931c-4f9f-8611-fbc26704cb3f))
    (instances
      (project "picobus-deployer-pcb"
        (path "/12643a92-991a-4335-aa18-743a3eda9124"
          (reference "Cinx12") (unit 1)
        )
      )
    )
  )

  (symbol (lib_id "Device:C") (at 78.74 106.68 180) (unit 1)
    (in_bom yes) (on_board yes) (dnp no)
    (uuid cb46334f-c4c9-4367-a853-db2ffbe570ef)
    (property "Reference" "Cbst12" (at 75.819 107.8484 0)
      (effects (font (size 1.27 1.27)) (justify left))
    )
    (property "Value" "10n" (at 75.819 105.537 0)
      (effects (font (size 1.27 1.27)) (justify left))
    )
    (property "Footprint" "Capacitor_SMD:C_0603_1608Metric_Pad1.08x0.95mm_HandSolder" (at 77.7748 102.87 0)
      (effects (font (size 1.27 1.27)) hide)
    )
    (property "Datasheet" "" (at 78.74 106.68 0)
      (effects (font (size 1.27 1.27)) hide)
    )
    (property "Mfr." "Kemet" (at 78.74 106.68 0)
      (effects (font (size 1.27 1.27)) hide)
    )
    (property "PartNumber" "C0603C103K5RACTU" (at 78.74 106.68 0)
      (effects (font (size 1.27 1.27)) hide)
    )
    (pin "1" (uuid 60169176-5a0b-458d-bfbb-b06bf9aacd00))
    (pin "2" (uuid 1b44b6e0-0df8-45cf-bacd-5c7abaa352bd))
    (instances
      (project "picobus-deployer-pcb"
        (path "/12643a92-991a-4335-aa18-743a3eda9124"
          (reference "Cbst12") (unit 1)
        )
      )
    )
  )

  (symbol (lib_id "Device:R") (at 138.43 142.24 0) (unit 1)
    (in_bom yes) (on_board yes) (dnp no)
    (uuid cb9939d5-d6b7-47e5-a0f6-e22c9098aab5)
    (property "Reference" "Rfb12" (at 140.208 141.0716 0)
      (effects (font (size 1.27 1.27)) (justify left))
    )
    (property "Value" "1k" (at 140.208 143.383 0)
      (effects (font (size 1.27 1.27)) (justify left))
    )
    (property "Footprint" "Resistor_SMD:R_0603_1608Metric_Pad0.98x0.95mm_HandSolder" (at 136.652 142.24 90)
      (effects (font (size 1.27 1.27)) hide)
    )
    (property "Datasheet" "~" (at 138.43 142.24 0)
      (effects (font (size 1.27 1.27)) hide)
    )
    (property "Mfr." "YAGEO" (at 138.43 142.24 0)
      (effects (font (size 1.27 1.27)) hide)
    )
    (property "PartNumber" "RC0603FR­071KL" (at 138.43 142.24 0)
      (effects (font (size 1.27 1.27)) hide)
    )
    (pin "1" (uuid d3e29dcf-319c-46bf-8929-add1de2ac075))
    (pin "2" (uuid 9fbd33c4-adef-4a93-86bd-94058ef3d09d))
    (instances
      (project "picobus-deployer-pcb"
        (path "/12643a92-991a-4335-aa18-743a3eda9124"
          (reference "Rfb12") (unit 1)
        )
      )
    )
  )

  (symbol (lib_id "Device:C") (at 147.32 135.89 0) (unit 1)
    (in_bom yes) (on_board yes) (dnp no)
    (uuid e8da368a-b819-4c07-8d5b-74b5227a14e8)
    (property "Reference" "Cout12" (at 150.241 134.7216 0)
      (effects (font (size 1.27 1.27)) (justify left))
    )
    (property "Value" "100u" (at 150.241 137.033 0)
      (effects (font (size 1.27 1.27)) (justify left))
    )
    (property "Footprint" "Capacitor_Tantalum_SMD:CP_EIA-3528-12_Kemet-T_Pad1.50x2.35mm_HandSolder" (at 148.2852 139.7 0)
      (effects (font (size 1.27 1.27)) hide)
    )
    (property "Datasheet" "~" (at 147.32 135.89 0)
      (effects (font (size 1.27 1.27)) hide)
    )
    (property "Mfr." "Murata" (at 147.32 135.89 0)
      (effects (font (size 1.27 1.27)) hide)
    )
    (property "PartNumber" "GRT32EC70J107ME13L" (at 147.32 135.89 0)
      (effects (font (size 1.27 1.27)) hide)
    )
    (pin "1" (uuid 891a82f9-3a55-4323-8250-378a171860cf))
    (pin "2" (uuid 85e0cbf3-7ae3-4c07-bb37-45a8a5842e72))
    (instances
      (project "picobus-deployer-pcb"
        (path "/12643a92-991a-4335-aa18-743a3eda9124"
          (reference "Cout12") (unit 1)
        )
      )
    )
  )

  (sheet_instances
    (path "/" (page "1"))
  )
)
